<?xml version="1.0" encoding="utf-8"?>
<!-- Generator: Adobe Illustrator 16.0.0, SVG Export Plug-In . SVG Version: 6.00 Build 0)  -->
<!DOCTYPE svg PUBLIC "-//W3C//DTD SVG 1.1//EN" "http://www.w3.org/Graphics/SVG/1.1/DTD/svg11.dtd">
<svg version="1.1" id="Ebene_1" xmlns="http://www.w3.org/2000/svg" xmlns:xlink="http://www.w3.org/1999/xlink" x="0px" y="0px"
	 width="28.35px" height="28.35px" viewBox="0 0 28.35 28.35" enable-background="new 0 0 28.35 28.35" xml:space="preserve">
<g>
	<g>
		<g>
			
				<line fill="none" stroke="#000000" stroke-width="0.2835" stroke-linejoin="round" stroke-miterlimit="10" x1="0.728" y1="3.57" x2="6.367" y2="3.57"/>
		</g>
		<g>
			
				<line fill="none" stroke="#000000" stroke-width="0.2835" stroke-linejoin="round" stroke-miterlimit="10" x1="3.547" y1="0.75" x2="3.547" y2="6.391"/>
		</g>
		<g>
			
				<line fill="none" stroke="#000000" stroke-width="0.2835" stroke-linejoin="round" stroke-miterlimit="10" x1="0.728" y1="0.75" x2="6.367" y2="6.391"/>
		</g>
		<g>
			
				<line fill="none" stroke="#000000" stroke-width="0.2835" stroke-linejoin="round" stroke-miterlimit="10" x1="6.367" y1="0.75" x2="0.728" y2="6.391"/>
		</g>
	</g>
	<g>
		<g>
			
				<line fill="none" stroke="#000000" stroke-width="0.2835" stroke-linejoin="round" stroke-miterlimit="10" x1="14.888" y1="17.729" x2="20.527" y2="17.729"/>
		</g>
		<g>
			
				<line fill="none" stroke="#000000" stroke-width="0.2835" stroke-linejoin="round" stroke-miterlimit="10" x1="17.707" y1="14.909" x2="17.707" y2="20.55"/>
		</g>
		<g>
			
				<line fill="none" stroke="#000000" stroke-width="0.2835" stroke-linejoin="round" stroke-miterlimit="10" x1="14.888" y1="14.909" x2="20.527" y2="20.55"/>
		</g>
		<g>
			
				<line fill="none" stroke="#000000" stroke-width="0.2835" stroke-linejoin="round" stroke-miterlimit="10" x1="20.527" y1="14.909" x2="14.888" y2="20.55"/>
		</g>
	</g>
	<polyline fill="none" stroke="#000000" stroke-width="0.2835" stroke-miterlimit="10" points="7.822,7.814 10.582,13.455 
		13.462,7.814 	"/>
	<polyline fill="none" stroke="#000000" stroke-width="0.2835" stroke-miterlimit="10" points="14.902,0.735 17.662,6.375 
		20.542,0.735 	"/>
	<polyline fill="none" stroke="#000000" stroke-width="0.2835" stroke-miterlimit="10" points="21.982,7.814 24.742,13.455 
		27.622,7.814 	"/>
	<polyline fill="none" stroke="#000000" stroke-width="0.2835" stroke-miterlimit="10" points="0.742,14.895 3.503,20.534 
		6.382,14.895 	"/>
	<polyline fill="none" stroke="#000000" stroke-width="0.2835" stroke-miterlimit="10" points="7.822,21.975 10.582,27.614 
		13.462,21.975 	"/>
	<polyline fill="none" stroke="#000000" stroke-width="0.2835" stroke-miterlimit="10" points="21.982,21.975 24.742,27.614 
		27.622,21.975 	"/>
</g>
</svg>
