<?xml version="1.0" encoding="utf-8"?>
<!-- Generator: Adobe Illustrator 16.0.0, SVG Export Plug-In . SVG Version: 6.00 Build 0)  -->
<!DOCTYPE svg PUBLIC "-//W3C//DTD SVG 1.1//EN" "http://www.w3.org/Graphics/SVG/1.1/DTD/svg11.dtd">
<svg version="1.1" id="Ebene_1" xmlns="http://www.w3.org/2000/svg" xmlns:xlink="http://www.w3.org/1999/xlink" x="0px" y="0px"
	 width="28.35px" height="28.35px" viewBox="0 0 28.35 28.35" enable-background="new 0 0 28.35 28.35" xml:space="preserve">
<g>
	<g>
		<g>
			
				<line fill="none" stroke="#000000" stroke-width="0.2835" stroke-linejoin="round" stroke-miterlimit="10" x1="0.755" y1="3.388" x2="6.395" y2="3.388"/>
		</g>
		<g>
			
				<line fill="none" stroke="#000000" stroke-width="0.2835" stroke-linejoin="round" stroke-miterlimit="10" x1="3.574" y1="0.567" x2="3.574" y2="6.208"/>
		</g>
		<g>
			
				<line fill="none" stroke="#000000" stroke-width="0.2835" stroke-linejoin="round" stroke-miterlimit="10" x1="0.755" y1="0.567" x2="6.395" y2="6.208"/>
		</g>
		<g>
			
				<line fill="none" stroke="#000000" stroke-width="0.2835" stroke-linejoin="round" stroke-miterlimit="10" x1="6.395" y1="0.567" x2="0.755" y2="6.208"/>
		</g>
	</g>
	<g>
		<g>
			
				<line fill="none" stroke="#000000" stroke-width="0.2835" stroke-linejoin="round" stroke-miterlimit="10" x1="14.915" y1="17.547" x2="20.555" y2="17.547"/>
		</g>
		<g>
			
				<line fill="none" stroke="#000000" stroke-width="0.2835" stroke-linejoin="round" stroke-miterlimit="10" x1="17.734" y1="14.727" x2="17.734" y2="20.367"/>
		</g>
		<g>
			
				<line fill="none" stroke="#000000" stroke-width="0.2835" stroke-linejoin="round" stroke-miterlimit="10" x1="14.915" y1="14.727" x2="20.555" y2="20.367"/>
		</g>
		<g>
			
				<line fill="none" stroke="#000000" stroke-width="0.2835" stroke-linejoin="round" stroke-miterlimit="10" x1="20.555" y1="14.727" x2="14.915" y2="20.367"/>
		</g>
	</g>
	<g>
		<g>
			
				<line fill="none" stroke="#000000" stroke-width="0.2835" stroke-miterlimit="10" x1="7.815" y1="10.409" x2="13.455" y2="10.409"/>
			
				<line fill="none" stroke="#000000" stroke-width="0.2835" stroke-miterlimit="10" x1="10.636" y1="7.588" x2="10.636" y2="13.229"/>
		</g>
		<g>
			
				<line fill="none" stroke="#000000" stroke-width="0.2835" stroke-miterlimit="10" x1="14.896" y1="3.329" x2="20.535" y2="3.329"/>
			
				<line fill="none" stroke="#000000" stroke-width="0.2835" stroke-miterlimit="10" x1="17.716" y1="0.508" x2="17.716" y2="6.149"/>
		</g>
		<g>
			
				<line fill="none" stroke="#000000" stroke-width="0.2835" stroke-miterlimit="10" x1="0.735" y1="17.609" x2="6.375" y2="17.609"/>
			
				<line fill="none" stroke="#000000" stroke-width="0.2835" stroke-miterlimit="10" x1="3.556" y1="14.789" x2="3.556" y2="20.43"/>
		</g>
		<g>
			
				<line fill="none" stroke="#000000" stroke-width="0.2835" stroke-miterlimit="10" x1="21.975" y1="10.409" x2="27.614" y2="10.409"/>
			
				<line fill="none" stroke="#000000" stroke-width="0.2835" stroke-miterlimit="10" x1="24.795" y1="7.588" x2="24.795" y2="13.229"/>
		</g>
		<g>
			
				<line fill="none" stroke="#000000" stroke-width="0.2835" stroke-miterlimit="10" x1="7.815" y1="24.689" x2="13.455" y2="24.689"/>
			
				<line fill="none" stroke="#000000" stroke-width="0.2835" stroke-miterlimit="10" x1="10.636" y1="21.869" x2="10.636" y2="27.51"/>
		</g>
		<g>
			
				<line fill="none" stroke="#000000" stroke-width="0.2835" stroke-miterlimit="10" x1="21.975" y1="24.689" x2="27.614" y2="24.689"/>
			
				<line fill="none" stroke="#000000" stroke-width="0.2835" stroke-miterlimit="10" x1="24.795" y1="21.869" x2="24.795" y2="27.51"/>
		</g>
	</g>
</g>
</svg>
