<?xml version="1.0" encoding="utf-8"?>
<!-- Generator: Adobe Illustrator 16.0.0, SVG Export Plug-In . SVG Version: 6.00 Build 0)  -->
<!DOCTYPE svg PUBLIC "-//W3C//DTD SVG 1.1//EN" "http://www.w3.org/Graphics/SVG/1.1/DTD/svg11.dtd">
<svg version="1.1" id="Ebene_1" xmlns="http://www.w3.org/2000/svg" xmlns:xlink="http://www.w3.org/1999/xlink" x="0px" y="0px"
	 width="28.35px" height="28.35px" viewBox="0 0 28.35 28.35" enable-background="new 0 0 28.35 28.35" xml:space="preserve">
<g>
	<path fill="#1D1D1B" d="M2.636,3.38c0,0.521,0.405,0.928,0.922,0.928c0.506,0,0.92-0.407,0.92-0.928
		c0-0.507-0.414-0.914-0.92-0.914C3.041,2.466,2.636,2.874,2.636,3.38"/>
	<path fill="#1D1D1B" d="M16.796,17.512c0,0.521,0.405,0.928,0.922,0.928c0.506,0,0.92-0.406,0.92-0.928
		c0-0.506-0.414-0.914-0.92-0.914C17.201,16.598,16.796,17.006,16.796,17.512"/>
	<polygon fill="#000100" points="15.264,5.658 17.718,1.283 20.17,5.658 	"/>
	<polygon fill="#000100" points="22.34,12.738 24.794,8.363 27.246,12.738 	"/>
	<polygon fill="#000100" points="8.184,12.738 10.638,8.363 13.09,12.738 	"/>
	<polygon fill="#000100" points="1.104,19.729 3.558,15.354 6.01,19.729 	"/>
	<polygon fill="#000100" points="22.34,26.896 24.794,22.521 27.246,26.896 	"/>
	<polygon fill="#000100" points="8.184,26.896 10.638,22.521 13.09,26.896 	"/>
</g>
</svg>
