<?xml version="1.0" encoding="utf-8"?>
<!-- Generator: Adobe Illustrator 16.0.0, SVG Export Plug-In . SVG Version: 6.00 Build 0)  -->
<!DOCTYPE svg PUBLIC "-//W3C//DTD SVG 1.1//EN" "http://www.w3.org/Graphics/SVG/1.1/DTD/svg11.dtd">
<svg version="1.1" id="Ebene_1" xmlns="http://www.w3.org/2000/svg" xmlns:xlink="http://www.w3.org/1999/xlink" x="0px" y="0px"
	 width="28.35px" height="28.35px" viewBox="0 0 28.35 28.35" enable-background="new 0 0 28.35 28.35" xml:space="preserve">
<g>
	<line fill="none" stroke="#000000" stroke-width="0.2835" stroke-miterlimit="10" x1="1.575" y1="3.555" x2="5.535" y2="3.555"/>
	<line fill="none" stroke="#000000" stroke-width="0.2835" stroke-miterlimit="10" x1="3.496" y1="1.635" x2="3.496" y2="5.595"/>
	<polyline fill="none" stroke="#000000" stroke-width="0.2835" stroke-miterlimit="10" points="7.815,7.755 10.575,13.515 
		13.455,7.755 	"/>
	<polyline fill="none" stroke="#000000" stroke-width="0.2835" stroke-miterlimit="10" points="14.895,0.675 17.654,6.435 
		20.535,0.675 	"/>
	<polyline fill="none" stroke="#000000" stroke-width="0.2835" stroke-miterlimit="10" points="21.975,7.755 24.734,13.515 
		27.615,7.755 	"/>
	<polyline fill="none" stroke="#000000" stroke-width="0.2835" stroke-miterlimit="10" points="0.735,14.955 3.496,20.595 
		6.375,14.955 	"/>
	
		<line fill="none" stroke="#000000" stroke-width="0.2835" stroke-miterlimit="10" x1="14.895" y1="16.035" x2="20.535" y2="19.395"/>
	
		<line fill="none" stroke="#000000" stroke-width="0.2835" stroke-miterlimit="10" x1="20.535" y1="16.035" x2="14.895" y2="19.395"/>
	<polyline fill="none" stroke="#000000" stroke-width="0.2835" stroke-miterlimit="10" points="7.815,22.035 10.575,27.675 
		13.455,22.035 	"/>
	<polyline fill="none" stroke="#000000" stroke-width="0.2835" stroke-miterlimit="10" points="21.975,22.035 24.734,27.675 
		27.615,22.035 	"/>
</g>
</svg>
