<?xml version="1.0" encoding="utf-8"?>
<!-- Generator: Adobe Illustrator 16.0.0, SVG Export Plug-In . SVG Version: 6.00 Build 0)  -->
<!DOCTYPE svg PUBLIC "-//W3C//DTD SVG 1.1//EN" "http://www.w3.org/Graphics/SVG/1.1/DTD/svg11.dtd">
<svg version="1.1" id="Ebene_1" xmlns="http://www.w3.org/2000/svg" xmlns:xlink="http://www.w3.org/1999/xlink" x="0px" y="0px"
	 width="28.35px" height="28.346px" viewBox="0 0 28.35 28.346" enable-background="new 0 0 28.35 28.346" xml:space="preserve">
<g>
	<polygon fill="none" stroke="#000000" stroke-width="0.2835" stroke-linecap="round" stroke-miterlimit="10" points="1.274,9.886 
		1.274,9.046 2.354,7.966 2.955,7.966 3.194,7.966 4.635,8.806 5.234,9.046 5.475,9.406 5.475,10.486 5.234,10.846 4.875,10.846 
		4.035,11.087 3.795,11.686 2.715,11.686 2.115,11.325 1.875,11.087 1.274,10.486 	"/>
	<polygon fill="none" stroke="#000000" stroke-width="0.2835" stroke-linecap="round" stroke-miterlimit="10" points="
		22.515,20.446 22.515,19.606 23.595,18.766 24.194,18.406 24.796,18.406 25.876,19.245 26.476,19.606 26.716,19.846 27.075,20.446 
		26.716,21.285 26.476,21.285 25.636,21.766 25.036,22.125 24.796,22.366 23.956,22.125 23.595,22.125 23.115,21.526 22.515,20.926 
			"/>
	<path fill="#000100" d="M24.384,20.448c0,0.174,0.123,0.297,0.297,0.297c0.149,0,0.299-0.123,0.299-0.297
		c0-0.147-0.146-0.3-0.299-0.3C24.507,20.148,24.384,20.297,24.384,20.448z"/>
	<g>
		<path fill="#000100" d="M6.018,18.767c0,0.174,0.123,0.297,0.297,0.297c0.149,0,0.298-0.123,0.298-0.297
			c0-0.148-0.146-0.299-0.298-0.299C6.141,18.468,6.018,18.617,6.018,18.767z"/>
		
			<circle fill="none" stroke="#000100" stroke-width="0.2835" stroke-linecap="round" stroke-miterlimit="10" cx="6.314" cy="18.766" r="1.68"/>
	</g>
	<g>
		<path fill="#000100" d="M23.657,7.727c0,0.174,0.12,0.297,0.297,0.297c0.146,0,0.299-0.123,0.299-0.297
			c0-0.148-0.149-0.299-0.299-0.299C23.78,7.429,23.657,7.577,23.657,7.727z"/>
		
			<circle fill="none" stroke="#000100" stroke-width="0.2835" stroke-linecap="round" stroke-miterlimit="10" cx="23.954" cy="7.726" r="1.68"/>
	</g>
	
		<circle fill="none" stroke="#000100" stroke-width="0.2835" stroke-linecap="round" stroke-miterlimit="10" cx="16.274" cy="13.606" r="1.68"/>
	
		<circle fill="none" stroke="#000100" stroke-width="0.2835" stroke-linecap="round" stroke-miterlimit="10" cx="14.595" cy="20.686" r="1.08"/>
	
		<circle fill="none" stroke="#000100" stroke-width="0.2835" stroke-linecap="round" stroke-miterlimit="10" cx="10.635" cy="7.365" r="1.08"/>
</g>
</svg>
