<?xml version="1.0" encoding="utf-8"?>
<!-- Generator: Adobe Illustrator 16.0.0, SVG Export Plug-In . SVG Version: 6.00 Build 0)  -->
<!DOCTYPE svg PUBLIC "-//W3C//DTD SVG 1.1//EN" "http://www.w3.org/Graphics/SVG/1.1/DTD/svg11.dtd">
<svg version="1.1" id="Ebene_1" xmlns="http://www.w3.org/2000/svg" xmlns:xlink="http://www.w3.org/1999/xlink" x="0px" y="0px"
	 width="28.35px" height="28.35px" viewBox="0 0 28.35 28.35" enable-background="new 0 0 28.35 28.35" xml:space="preserve">
<g>
	<line fill="none" stroke="#000000" stroke-width="0.2835" stroke-miterlimit="10" x1="2.715" y1="3.389" x2="4.395" y2="3.389"/>
	<polyline fill="none" stroke="#000000" stroke-width="0.2835" stroke-miterlimit="10" points="4.395,5.068 2.715,5.068 
		2.715,1.708 4.395,1.708 	"/>
	
		<line fill="none" stroke="#000000" stroke-width="0.2835" stroke-miterlimit="10" x1="9.795" y1="10.469" x2="11.475" y2="10.469"/>
	<polyline fill="none" stroke="#000000" stroke-width="0.2835" stroke-miterlimit="10" points="11.475,12.148 9.795,12.148 
		9.795,8.788 11.475,8.788 	"/>
	<line fill="none" stroke="#000000" stroke-width="0.2835" stroke-miterlimit="10" x1="16.875" y1="3.389" x2="18.555" y2="3.389"/>
	<polyline fill="none" stroke="#000000" stroke-width="0.2835" stroke-miterlimit="10" points="18.555,5.068 16.875,5.068 
		16.875,1.708 18.555,1.708 	"/>
	
		<line fill="none" stroke="#000000" stroke-width="0.2835" stroke-miterlimit="10" x1="23.955" y1="10.469" x2="25.635" y2="10.469"/>
	<polyline fill="none" stroke="#000000" stroke-width="0.2835" stroke-miterlimit="10" points="25.635,12.148 23.955,12.148 
		23.955,8.788 25.635,8.788 	"/>
	<line fill="none" stroke="#000000" stroke-width="0.2835" stroke-miterlimit="10" x1="2.715" y1="17.549" x2="4.395" y2="17.549"/>
	<polyline fill="none" stroke="#000000" stroke-width="0.2835" stroke-miterlimit="10" points="4.395,19.229 2.715,19.229 
		2.715,15.868 4.395,15.868 	"/>
	
		<line fill="none" stroke="#000000" stroke-width="0.2835" stroke-miterlimit="10" x1="16.875" y1="17.549" x2="18.555" y2="17.549"/>
	<polyline fill="none" stroke="#000000" stroke-width="0.2835" stroke-miterlimit="10" points="18.555,19.229 16.875,19.229 
		16.875,15.868 18.555,15.868 	"/>
	
		<line fill="none" stroke="#000000" stroke-width="0.2835" stroke-miterlimit="10" x1="9.795" y1="24.629" x2="11.475" y2="24.629"/>
	<polyline fill="none" stroke="#000000" stroke-width="0.2835" stroke-miterlimit="10" points="11.475,26.309 9.795,26.309 
		9.795,22.948 11.475,22.948 	"/>
	
		<line fill="none" stroke="#000000" stroke-width="0.2835" stroke-miterlimit="10" x1="23.955" y1="24.629" x2="25.635" y2="24.629"/>
	<polyline fill="none" stroke="#000000" stroke-width="0.2835" stroke-miterlimit="10" points="25.635,26.309 23.955,26.309 
		23.955,22.948 25.635,22.948 	"/>
</g>
</svg>
