<?xml version="1.0" encoding="utf-8"?>
<!-- Generator: Adobe Illustrator 16.0.0, SVG Export Plug-In . SVG Version: 6.00 Build 0)  -->
<!DOCTYPE svg PUBLIC "-//W3C//DTD SVG 1.1//EN" "http://www.w3.org/Graphics/SVG/1.1/DTD/svg11.dtd">
<svg version="1.1" id="Ebene_1" xmlns="http://www.w3.org/2000/svg" xmlns:xlink="http://www.w3.org/1999/xlink" x="0px" y="0px"
	 width="28.35px" height="28.35px" viewBox="0 0 28.35 28.35" enable-background="new 0 0 28.35 28.35" xml:space="preserve">
<g>
	
		<rect x="9.494" y="7.922" fill="none" stroke="#000000" stroke-width="0.2835" stroke-miterlimit="10" width="2.279" height="5.16"/>
	
		<rect x="16.574" y="0.842" fill="none" stroke="#000000" stroke-width="0.2835" stroke-miterlimit="10" width="2.279" height="5.16"/>
	
		<rect x="23.654" y="7.922" fill="none" stroke="#000000" stroke-width="0.2835" stroke-miterlimit="10" width="2.279" height="5.16"/>
	
		<rect x="2.414" y="15.002" fill="none" stroke="#000000" stroke-width="0.2835" stroke-miterlimit="10" width="2.279" height="5.16"/>
	
		<rect x="9.494" y="22.082" fill="none" stroke="#000000" stroke-width="0.2835" stroke-miterlimit="10" width="2.279" height="5.16"/>
	
		<rect x="23.654" y="22.082" fill="none" stroke="#000000" stroke-width="0.2835" stroke-miterlimit="10" width="2.279" height="5.16"/>
</g>
</svg>
