<?xml version="1.0" encoding="utf-8"?>
<!-- Generator: Adobe Illustrator 16.0.0, SVG Export Plug-In . SVG Version: 6.00 Build 0)  -->
<!DOCTYPE svg PUBLIC "-//W3C//DTD SVG 1.1//EN" "http://www.w3.org/Graphics/SVG/1.1/DTD/svg11.dtd">
<svg version="1.1" id="Ebene_1" xmlns="http://www.w3.org/2000/svg" xmlns:xlink="http://www.w3.org/1999/xlink" x="0px" y="0px"
	 width="28.35px" height="28.35px" viewBox="0 0 28.35 28.35" enable-background="new 0 0 28.35 28.35" xml:space="preserve">
<g>
	<g>
		
			<line fill="none" stroke="#000000" stroke-width="0.2835" stroke-miterlimit="10" x1="7.815" y1="10.408" x2="13.455" y2="10.408"/>
		
			<line fill="none" stroke="#000000" stroke-width="0.2835" stroke-miterlimit="10" x1="10.636" y1="7.588" x2="10.636" y2="13.229"/>
	</g>
	<g>
		
			<line fill="none" stroke="#000000" stroke-width="0.2835" stroke-miterlimit="10" x1="14.895" y1="3.328" x2="20.535" y2="3.328"/>
		
			<line fill="none" stroke="#000000" stroke-width="0.2835" stroke-miterlimit="10" x1="17.716" y1="0.508" x2="17.716" y2="6.148"/>
	</g>
	<g>
		
			<line fill="none" stroke="#000000" stroke-width="0.2835" stroke-miterlimit="10" x1="0.736" y1="17.607" x2="6.375" y2="17.607"/>
		
			<line fill="none" stroke="#000000" stroke-width="0.2835" stroke-miterlimit="10" x1="3.556" y1="14.788" x2="3.556" y2="20.428"/>
	</g>
	<g>
		
			<line fill="none" stroke="#000000" stroke-width="0.2835" stroke-miterlimit="10" x1="21.974" y1="10.408" x2="27.615" y2="10.408"/>
		
			<line fill="none" stroke="#000000" stroke-width="0.2835" stroke-miterlimit="10" x1="24.795" y1="7.588" x2="24.795" y2="13.229"/>
	</g>
	<g>
		
			<line fill="none" stroke="#000000" stroke-width="0.2835" stroke-miterlimit="10" x1="7.815" y1="24.688" x2="13.455" y2="24.688"/>
		
			<line fill="none" stroke="#000000" stroke-width="0.2835" stroke-miterlimit="10" x1="10.636" y1="21.867" x2="10.636" y2="27.508"/>
	</g>
	<g>
		
			<line fill="none" stroke="#000000" stroke-width="0.2835" stroke-miterlimit="10" x1="21.974" y1="24.688" x2="27.615" y2="24.688"/>
		
			<line fill="none" stroke="#000000" stroke-width="0.2835" stroke-miterlimit="10" x1="24.795" y1="21.867" x2="24.795" y2="27.508"/>
	</g>
</g>
</svg>
