<?xml version="1.0" encoding="utf-8"?>
<!-- Generator: Adobe Illustrator 16.0.0, SVG Export Plug-In . SVG Version: 6.00 Build 0)  -->
<!DOCTYPE svg PUBLIC "-//W3C//DTD SVG 1.1//EN" "http://www.w3.org/Graphics/SVG/1.1/DTD/svg11.dtd">
<svg version="1.1" id="Ebene_1" xmlns="http://www.w3.org/2000/svg" xmlns:xlink="http://www.w3.org/1999/xlink" x="0px" y="0px"
	 width="28.35px" height="28.35px" viewBox="0 0 28.35 28.35" enable-background="new 0 0 28.35 28.35" xml:space="preserve">
<g>
	<polyline fill="none" stroke="#000000" stroke-width="0.2835" stroke-miterlimit="10" points="7.815,7.815 10.575,13.455 
		13.455,7.815 	"/>
	<polyline fill="none" stroke="#000000" stroke-width="0.2835" stroke-miterlimit="10" points="14.895,0.735 17.654,6.375 
		20.535,0.735 	"/>
	<polyline fill="none" stroke="#000000" stroke-width="0.2835" stroke-miterlimit="10" points="21.975,7.815 24.734,13.455 
		27.615,7.815 	"/>
	<polyline fill="none" stroke="#000000" stroke-width="0.2835" stroke-miterlimit="10" points="0.735,14.895 3.496,20.535 
		6.375,14.895 	"/>
	<polyline fill="none" stroke="#000000" stroke-width="0.2835" stroke-miterlimit="10" points="7.815,21.975 10.575,27.615 
		13.455,21.975 	"/>
	<polyline fill="none" stroke="#000000" stroke-width="0.2835" stroke-miterlimit="10" points="21.975,21.975 24.734,27.615 
		27.615,21.975 	"/>
</g>
</svg>
