<?xml version="1.0" encoding="utf-8"?>
<!-- Generator: Adobe Illustrator 16.0.0, SVG Export Plug-In . SVG Version: 6.00 Build 0)  -->
<!DOCTYPE svg PUBLIC "-//W3C//DTD SVG 1.1//EN" "http://www.w3.org/Graphics/SVG/1.1/DTD/svg11.dtd">
<svg version="1.1" id="Ebene_1" xmlns="http://www.w3.org/2000/svg" xmlns:xlink="http://www.w3.org/1999/xlink" x="0px" y="0px"
	 width="28.35px" height="28.35px" viewBox="0 0 28.35 28.35" enable-background="new 0 0 28.35 28.35" xml:space="preserve">
<g>
	<line fill="none" stroke="#000100" stroke-width="0.2835" stroke-miterlimit="10" x1="14.875" y1="3.321" x2="20.635" y2="3.321"/>
	
		<line fill="none" stroke="#000100" stroke-width="0.2835" stroke-miterlimit="10" x1="14.875" y1="17.602" x2="20.635" y2="17.602"/>
	
		<line fill="none" stroke="#000100" stroke-width="0.2835" stroke-miterlimit="10" x1="7.795" y1="10.522" x2="13.555" y2="10.522"/>
	
		<line fill="none" stroke="#000100" stroke-width="0.2835" stroke-miterlimit="10" x1="7.795" y1="24.682" x2="13.555" y2="24.682"/>
	<g>
		<path fill="#1D1D1B" d="M25.242,10.266c0,0.559,0.438,0.998,0.992,0.998c0.545,0,0.992-0.439,0.992-0.998
			c0-0.547-0.447-0.986-0.992-0.986C25.68,9.28,25.242,9.719,25.242,10.266"/>
		<path fill="#1D1D1B" d="M22.363,10.266c0,0.559,0.438,0.998,0.992,0.998c0.543,0,0.992-0.439,0.992-0.998
			c0-0.547-0.449-0.986-0.992-0.986C22.801,9.28,22.363,9.719,22.363,10.266"/>
		<g>
			
				<line fill="none" stroke="#000100" stroke-width="0.2835" stroke-miterlimit="10" x1="21.914" y1="11.362" x2="27.674" y2="11.362"/>
		</g>
	</g>
	<g>
		<path fill="#1D1D1B" d="M25.242,24.426c0,0.559,0.438,0.998,0.992,0.998c0.545,0,0.992-0.439,0.992-0.998
			c0-0.547-0.447-0.986-0.992-0.986C25.68,23.439,25.242,23.879,25.242,24.426"/>
		<path fill="#1D1D1B" d="M22.363,24.426c0,0.559,0.438,0.998,0.992,0.998c0.543,0,0.992-0.439,0.992-0.998
			c0-0.547-0.449-0.986-0.992-0.986C22.801,23.439,22.363,23.879,22.363,24.426"/>
		<g>
			
				<line fill="none" stroke="#000100" stroke-width="0.2835" stroke-miterlimit="10" x1="21.914" y1="25.521" x2="27.674" y2="25.521"/>
		</g>
	</g>
	<g>
		<path fill="#1D1D1B" d="M4.003,17.402c0,0.559,0.438,0.998,0.992,0.998c0.545,0,0.992-0.439,0.992-0.998
			c0-0.547-0.447-0.986-0.992-0.986C4.441,16.416,4.003,16.855,4.003,17.402"/>
		<path fill="#1D1D1B" d="M1.125,17.402c0,0.559,0.437,0.998,0.992,0.998c0.543,0,0.991-0.439,0.991-0.998
			c0-0.547-0.448-0.986-0.991-0.986C1.561,16.416,1.125,16.855,1.125,17.402"/>
		<g>
			
				<line fill="none" stroke="#000100" stroke-width="0.2835" stroke-miterlimit="10" x1="0.675" y1="18.498" x2="6.435" y2="18.498"/>
		</g>
	</g>
	<g>
		<path fill="#1D1D1B" d="M4.003,3.153c0,0.559,0.438,0.998,0.992,0.998c0.545,0,0.992-0.439,0.992-0.998
			c0-0.547-0.447-0.986-0.992-0.986C4.441,2.167,4.003,2.606,4.003,3.153"/>
		<path fill="#1D1D1B" d="M1.125,3.153c0,0.559,0.437,0.998,0.992,0.998c0.543,0,0.991-0.439,0.991-0.998
			c0-0.547-0.448-0.986-0.991-0.986C1.561,2.167,1.125,2.606,1.125,3.153"/>
		<g>
			<line fill="none" stroke="#000100" stroke-width="0.2835" stroke-miterlimit="10" x1="0.675" y1="4.249" x2="6.435" y2="4.249"/>
		</g>
	</g>
</g>
</svg>
