<?xml version="1.0" encoding="utf-8"?>
<!-- Generator: Adobe Illustrator 16.0.0, SVG Export Plug-In . SVG Version: 6.00 Build 0)  -->
<!DOCTYPE svg PUBLIC "-//W3C//DTD SVG 1.1//EN" "http://www.w3.org/Graphics/SVG/1.1/DTD/svg11.dtd">
<svg version="1.1" id="Ebene_1" xmlns="http://www.w3.org/2000/svg" xmlns:xlink="http://www.w3.org/1999/xlink" x="0px" y="0px"
	 width="28.35px" height="28.35px" viewBox="0 0 28.35 28.35" enable-background="new 0 0 28.35 28.35" xml:space="preserve">
<path fill="none" stroke="#1D1D1B" stroke-width="0.2835" stroke-miterlimit="10" d="M14.857,2.789c0.71,0,0.665,0.604,1.347,0.604
	c0.896,0,0.818-0.573,1.484-0.589c0.679-0.016,0.771,0.589,1.42,0.589c0.82,0,0.71-0.604,1.418-0.604"/>
<path fill="none" stroke="#1D1D1B" stroke-width="0.2835" stroke-miterlimit="10" d="M0.638,17.008c0.71,0,0.665,0.604,1.346,0.604
	c0.897,0,0.819-0.573,1.485-0.59c0.678-0.016,0.771,0.59,1.42,0.59c0.82,0,0.71-0.604,1.418-0.604"/>
<path fill="none" stroke="#1D1D1B" stroke-width="0.2835" stroke-miterlimit="10" d="M21.938,24.09c0.71,0,0.665,0.604,1.347,0.604
	c0.896,0,0.818-0.571,1.484-0.588c0.678-0.016,0.771,0.588,1.42,0.588c0.82,0,0.71-0.604,1.418-0.604"/>
<line fill="none" stroke="#000000" stroke-width="0.2835" stroke-miterlimit="10" x1="0.862" y1="2.764" x2="6.502" y2="2.764"/>
<line fill="none" stroke="#000000" stroke-width="0.2835" stroke-miterlimit="10" x1="0.862" y1="3.648" x2="6.502" y2="3.648"/>
<line fill="none" stroke="#000000" stroke-width="0.2835" stroke-miterlimit="10" x1="17.667" y1="14.979" x2="17.667" y2="20.619"/>
<line fill="none" stroke="#000000" stroke-width="0.2835" stroke-miterlimit="10" x1="14.906" y1="17.357" x2="20.546" y2="17.357"/>
<line fill="none" stroke="#000000" stroke-width="0.2835" stroke-miterlimit="10" x1="14.906" y1="18.241" x2="20.546" y2="18.241"/>
<line fill="none" stroke="#000000" stroke-width="0.2835" stroke-miterlimit="10" x1="10.673" y1="7.664" x2="10.673" y2="13.303"/>
<line fill="none" stroke="#000000" stroke-width="0.2835" stroke-miterlimit="10" x1="7.912" y1="10.041" x2="13.552" y2="10.041"/>
<line fill="none" stroke="#000000" stroke-width="0.2835" stroke-miterlimit="10" x1="7.912" y1="10.926" x2="13.552" y2="10.926"/>
<line fill="none" stroke="#000000" stroke-width="0.2835" stroke-miterlimit="10" x1="7.912" y1="24.112" x2="13.552" y2="24.112"/>
<line fill="none" stroke="#000000" stroke-width="0.2835" stroke-miterlimit="10" x1="7.912" y1="24.994" x2="13.552" y2="24.994"/>
<line fill="none" stroke="#000000" stroke-width="0.2835" stroke-miterlimit="10" x1="24.833" y1="7.664" x2="24.833" y2="13.303"/>
<line fill="none" stroke="#000000" stroke-width="0.2835" stroke-miterlimit="10" x1="22.072" y1="10.041" x2="27.712" y2="10.041"/>
<line fill="none" stroke="#000000" stroke-width="0.2835" stroke-miterlimit="10" x1="22.072" y1="10.926" x2="27.712" y2="10.926"/>
</svg>
