<?xml version="1.0" encoding="utf-8"?>
<!-- Generator: Adobe Illustrator 16.0.0, SVG Export Plug-In . SVG Version: 6.00 Build 0)  -->
<!DOCTYPE svg PUBLIC "-//W3C//DTD SVG 1.1//EN" "http://www.w3.org/Graphics/SVG/1.1/DTD/svg11.dtd">
<svg version="1.1" id="Ebene_1" xmlns="http://www.w3.org/2000/svg" xmlns:xlink="http://www.w3.org/1999/xlink" x="0px" y="0px"
	 width="28.35px" height="28.35px" viewBox="0 0 28.35 28.35" enable-background="new 0 0 28.35 28.35" xml:space="preserve">
<g>
	<path fill="none" stroke="#1D1D1B" stroke-width="0.2835" stroke-miterlimit="10" d="M14.91,2.801c0.71,0,0.665,0.604,1.346,0.604
		c0.897,0,0.819-0.573,1.485-0.589c0.678-0.016,0.771,0.589,1.42,0.589c0.82,0,0.71-0.604,1.418-0.604"/>
	<path fill="none" stroke="#1D1D1B" stroke-width="0.2835" stroke-miterlimit="10" d="M0.69,17.021c0.71,0,0.665,0.604,1.346,0.604
		c0.897,0,0.819-0.572,1.485-0.588c0.678-0.016,0.771,0.588,1.42,0.588c0.82,0,0.71-0.604,1.418-0.604"/>
	<path fill="none" stroke="#1D1D1B" stroke-width="0.2835" stroke-miterlimit="10" d="M21.99,24.102c0.71,0,0.665,0.605,1.346,0.605
		c0.897,0,0.819-0.574,1.485-0.59c0.678-0.016,0.771,0.59,1.42,0.59c0.82,0,0.71-0.605,1.418-0.605"/>
	<path fill="none" stroke="#1D1D1B" stroke-width="0.2835" stroke-miterlimit="10" d="M21.99,9.881c0.71,0,0.665,0.604,1.346,0.604
		c0.897,0,0.819-0.573,1.485-0.589c0.678-0.016,0.771,0.589,1.42,0.589c0.82,0,0.71-0.604,1.418-0.604"/>
	<path fill="none" stroke="#1D1D1B" stroke-width="0.2835" stroke-miterlimit="10" d="M7.843,24.102c0.71,0,0.665,0.605,1.346,0.605
		c0.897,0,0.819-0.574,1.485-0.59c0.678-0.016,0.771,0.59,1.42,0.59c0.82,0,0.71-0.605,1.418-0.605"/>
	<path fill="none" stroke="#1D1D1B" stroke-width="0.2835" stroke-miterlimit="10" d="M7.843,9.881c0.71,0,0.665,0.604,1.346,0.604
		c0.897,0,0.819-0.573,1.485-0.589c0.678-0.016,0.771,0.589,1.42,0.589c0.82,0,0.71-0.604,1.418-0.604"/>
</g>
</svg>
