<?xml version="1.0" encoding="utf-8"?>
<!-- Generator: Adobe Illustrator 16.0.0, SVG Export Plug-In . SVG Version: 6.00 Build 0)  -->
<!DOCTYPE svg PUBLIC "-//W3C//DTD SVG 1.1//EN" "http://www.w3.org/Graphics/SVG/1.1/DTD/svg11.dtd">
<svg version="1.1" id="Ebene_1" xmlns="http://www.w3.org/2000/svg" xmlns:xlink="http://www.w3.org/1999/xlink" x="0px" y="0px"
	 width="28.35px" height="28.35px" viewBox="0 0 28.35 28.35" enable-background="new 0 0 28.35 28.35" xml:space="preserve">
<g>
	<polygon fill="#000100" points="15.264,1.261 17.718,5.636 20.17,1.261 	"/>
	<polygon fill="#000100" points="22.34,8.341 24.794,12.716 27.246,8.341 	"/>
	<polygon fill="#000100" points="8.184,8.341 10.638,12.716 13.09,8.341 	"/>
	<polygon fill="#000100" points="1.104,15.331 3.558,19.706 6.01,15.331 	"/>
	<polygon fill="#000100" points="22.34,22.501 24.794,26.876 27.246,22.501 	"/>
	<polygon fill="#000100" points="8.184,22.501 10.638,26.876 13.09,22.501 	"/>
</g>
</svg>
