<?xml version="1.0" encoding="utf-8"?>
<!-- Generator: Adobe Illustrator 16.0.0, SVG Export Plug-In . SVG Version: 6.00 Build 0)  -->
<!DOCTYPE svg PUBLIC "-//W3C//DTD SVG 1.1//EN" "http://www.w3.org/Graphics/SVG/1.1/DTD/svg11.dtd">
<svg version="1.1" id="Ebene_1" xmlns="http://www.w3.org/2000/svg" xmlns:xlink="http://www.w3.org/1999/xlink" x="0px" y="0px"
	 width="28.35px" height="28.35px" viewBox="0 0 28.35 28.35" enable-background="new 0 0 28.35 28.35" xml:space="preserve">
<path fill="none" stroke="#1D1D1B" stroke-width="0.2835" stroke-miterlimit="10" d="M14.898,2.788c0.71,0,0.665,0.604,1.346,0.604
	c0.897,0,0.819-0.573,1.485-0.589c0.678-0.016,0.771,0.589,1.42,0.589c0.82,0,0.71-0.604,1.418-0.604"/>
<path fill="none" stroke="#1D1D1B" stroke-width="0.2835" stroke-miterlimit="10" d="M0.678,17.008c0.71,0,0.665,0.604,1.346,0.604
	c0.897,0,0.819-0.572,1.485-0.588c0.678-0.016,0.771,0.588,1.42,0.588c0.82,0,0.71-0.604,1.418-0.604"/>
<path fill="none" stroke="#1D1D1B" stroke-width="0.2835" stroke-miterlimit="10" d="M21.978,24.088c0.71,0,0.665,0.605,1.346,0.605
	c0.897,0,0.819-0.574,1.485-0.59c0.678-0.016,0.771,0.59,1.42,0.59c0.82,0,0.71-0.605,1.418-0.605"/>
<g>
	<line fill="none" stroke="#000000" stroke-width="0.2835" stroke-miterlimit="10" x1="7.839" y1="8.788" x2="13.479" y2="12.15"/>
	<line fill="none" stroke="#000000" stroke-width="0.2835" stroke-miterlimit="10" x1="13.479" y1="8.788" x2="7.839" y2="12.15"/>
</g>
<g>
	
		<line fill="none" stroke="#000000" stroke-width="0.2835" stroke-miterlimit="10" x1="14.919" y1="15.867" x2="20.559" y2="19.229"/>
	
		<line fill="none" stroke="#000000" stroke-width="0.2835" stroke-miterlimit="10" x1="20.559" y1="15.867" x2="14.919" y2="19.229"/>
</g>
<path fill="none" stroke="#1D1D1B" stroke-width="0.2835" stroke-miterlimit="10" d="M2.052,3.251c0.897,0,0.819-0.573,1.485-0.589
	c0.678-0.016,0.771,0.589,1.42,0.589c0.82,0,0.71-0.604,1.418-0.604"/>
<path fill="none" stroke="#1D1D1B" stroke-width="0.2835" stroke-miterlimit="10" d="M2.052,4.126c0.897,0,0.819-0.573,1.485-0.589
	c0.678-0.016,0.771,0.589,1.42,0.589c0.82,0,0.71-0.604,1.418-0.604"/>
<path fill="none" stroke="#1D1D1B" stroke-width="0.2835" stroke-miterlimit="10" d="M23.286,10.359
	c0.897,0,0.819-0.573,1.485-0.589c0.678-0.016,0.771,0.589,1.42,0.589c0.82,0,0.71-0.604,1.418-0.604"/>
<path fill="none" stroke="#1D1D1B" stroke-width="0.2835" stroke-miterlimit="10" d="M23.286,11.234
	c0.897,0,0.819-0.573,1.485-0.589c0.678-0.016,0.771,0.589,1.42,0.589c0.82,0,0.71-0.604,1.418-0.604"/>
<path fill="none" stroke="#1D1D1B" stroke-width="0.2835" stroke-miterlimit="10" d="M9.157,24.522c0.897,0,0.819-0.572,1.485-0.588
	c0.678-0.016,0.771,0.588,1.42,0.588c0.82,0,0.71-0.604,1.418-0.604"/>
<path fill="none" stroke="#1D1D1B" stroke-width="0.2835" stroke-miterlimit="10" d="M9.157,25.397c0.897,0,0.819-0.572,1.485-0.588
	c0.678-0.016,0.771,0.588,1.42,0.588c0.82,0,0.71-0.604,1.418-0.604"/>
</svg>
