<?xml version="1.0" encoding="utf-8"?>
<!-- Generator: Adobe Illustrator 16.0.0, SVG Export Plug-In . SVG Version: 6.00 Build 0)  -->
<!DOCTYPE svg PUBLIC "-//W3C//DTD SVG 1.1//EN" "http://www.w3.org/Graphics/SVG/1.1/DTD/svg11.dtd">
<svg version="1.1" id="Ebene_1" xmlns="http://www.w3.org/2000/svg" xmlns:xlink="http://www.w3.org/1999/xlink" x="0px" y="0px"
	 width="28.35px" height="28.35px" viewBox="0 0 28.35 28.35" enable-background="new 0 0 28.35 28.35" xml:space="preserve">
<g>
	<g>
		
			<circle fill="none" stroke="#000000" stroke-width="0.2835" stroke-linecap="round" stroke-linejoin="round" stroke-miterlimit="10" cx="7.094" cy="5.425" r="1.08"/>
		
			<line fill="none" stroke="#000000" stroke-width="0.2835" stroke-linejoin="round" stroke-miterlimit="10" x1="4.813" y1="5" x2="4.813" y2="5.85"/>
		<g>
			
				<line fill="none" stroke="#000000" stroke-width="0.2835" stroke-linejoin="round" stroke-miterlimit="10" x1="8.176" y1="5.425" x2="9.375" y2="5.425"/>
			
				<line fill="none" stroke="#000000" stroke-width="0.2835" stroke-linejoin="round" stroke-miterlimit="10" x1="4.813" y1="5.425" x2="6.013" y2="5.425"/>
		</g>
		
			<line fill="none" stroke="#000000" stroke-width="0.2835" stroke-linejoin="round" stroke-miterlimit="10" x1="9.375" y1="5" x2="9.375" y2="5.85"/>
		<g>
			
				<line fill="none" stroke="#000000" stroke-width="0.2835" stroke-linejoin="round" stroke-miterlimit="10" x1="5.181" y1="6.736" x2="5.782" y2="7.338"/>
			<g>
				
					<line fill="none" stroke="#000000" stroke-width="0.2835" stroke-linejoin="round" stroke-miterlimit="10" x1="7.859" y1="4.66" x2="8.707" y2="3.812"/>
				
					<line fill="none" stroke="#000000" stroke-width="0.2835" stroke-linejoin="round" stroke-miterlimit="10" x1="5.481" y1="7.037" x2="6.329" y2="6.189"/>
			</g>
			
				<line fill="none" stroke="#000000" stroke-width="0.2835" stroke-linejoin="round" stroke-miterlimit="10" x1="8.406" y1="3.511" x2="9.008" y2="4.113"/>
		</g>
		<g>
			
				<line fill="none" stroke="#000000" stroke-width="0.2835" stroke-linejoin="round" stroke-miterlimit="10" x1="6.668" y1="7.706" x2="7.52" y2="7.705"/>
			<g>
				
					<line fill="none" stroke="#000000" stroke-width="0.2835" stroke-linejoin="round" stroke-miterlimit="10" x1="7.094" y1="4.342" x2="7.094" y2="3.144"/>
				
					<line fill="none" stroke="#000000" stroke-width="0.2835" stroke-linejoin="round" stroke-miterlimit="10" x1="7.094" y1="7.705" x2="7.094" y2="6.506"/>
			</g>
			
				<line fill="none" stroke="#000000" stroke-width="0.2835" stroke-linejoin="round" stroke-miterlimit="10" x1="6.669" y1="3.144" x2="7.52" y2="3.144"/>
		</g>
		<g>
			
				<line fill="none" stroke="#000000" stroke-width="0.2835" stroke-linejoin="round" stroke-miterlimit="10" x1="8.405" y1="7.339" x2="9.008" y2="6.737"/>
			<g>
				
					<line fill="none" stroke="#000000" stroke-width="0.2835" stroke-linejoin="round" stroke-miterlimit="10" x1="6.328" y1="4.66" x2="5.48" y2="3.812"/>
				
					<line fill="none" stroke="#000000" stroke-width="0.2835" stroke-linejoin="round" stroke-miterlimit="10" x1="8.707" y1="7.038" x2="7.859" y2="6.19"/>
			</g>
			
				<line fill="none" stroke="#000000" stroke-width="0.2835" stroke-linejoin="round" stroke-miterlimit="10" x1="5.181" y1="4.112" x2="5.781" y2="3.511"/>
		</g>
	</g>
	<g>
		
			<circle fill="none" stroke="#000000" stroke-width="0.2835" stroke-linecap="round" stroke-linejoin="round" stroke-miterlimit="10" cx="7.094" cy="19.586" r="1.08"/>
		<g>
			
				<line fill="none" stroke="#000000" stroke-width="0.2835" stroke-linejoin="round" stroke-miterlimit="10" x1="4.813" y1="19.16" x2="4.813" y2="20.011"/>
			<g>
				
					<line fill="none" stroke="#000000" stroke-width="0.2835" stroke-linejoin="round" stroke-miterlimit="10" x1="8.176" y1="19.586" x2="9.375" y2="19.586"/>
				
					<line fill="none" stroke="#000000" stroke-width="0.2835" stroke-linejoin="round" stroke-miterlimit="10" x1="4.813" y1="19.586" x2="6.013" y2="19.586"/>
			</g>
			
				<line fill="none" stroke="#000000" stroke-width="0.2835" stroke-linejoin="round" stroke-miterlimit="10" x1="9.375" y1="19.16" x2="9.375" y2="20.011"/>
		</g>
		<g>
			
				<line fill="none" stroke="#000000" stroke-width="0.2835" stroke-linejoin="round" stroke-miterlimit="10" x1="5.181" y1="20.896" x2="5.782" y2="21.498"/>
			<g>
				
					<line fill="none" stroke="#000000" stroke-width="0.2835" stroke-linejoin="round" stroke-miterlimit="10" x1="7.859" y1="18.82" x2="8.707" y2="17.973"/>
				
					<line fill="none" stroke="#000000" stroke-width="0.2835" stroke-linejoin="round" stroke-miterlimit="10" x1="5.481" y1="21.197" x2="6.329" y2="20.35"/>
			</g>
			
				<line fill="none" stroke="#000000" stroke-width="0.2835" stroke-linejoin="round" stroke-miterlimit="10" x1="8.406" y1="17.672" x2="9.008" y2="18.273"/>
		</g>
		<g>
			
				<line fill="none" stroke="#000000" stroke-width="0.2835" stroke-linejoin="round" stroke-miterlimit="10" x1="6.668" y1="21.866" x2="7.52" y2="21.865"/>
			<g>
				
					<line fill="none" stroke="#000000" stroke-width="0.2835" stroke-linejoin="round" stroke-miterlimit="10" x1="7.094" y1="18.503" x2="7.094" y2="17.305"/>
				
					<line fill="none" stroke="#000000" stroke-width="0.2835" stroke-linejoin="round" stroke-miterlimit="10" x1="7.094" y1="21.865" x2="7.094" y2="20.667"/>
			</g>
			
				<line fill="none" stroke="#000000" stroke-width="0.2835" stroke-linejoin="round" stroke-miterlimit="10" x1="6.669" y1="17.305" x2="7.52" y2="17.305"/>
		</g>
		<g>
			
				<line fill="none" stroke="#000000" stroke-width="0.2835" stroke-linejoin="round" stroke-miterlimit="10" x1="8.405" y1="21.5" x2="9.008" y2="20.897"/>
			<g>
				
					<line fill="none" stroke="#000000" stroke-width="0.2835" stroke-linejoin="round" stroke-miterlimit="10" x1="6.328" y1="18.82" x2="5.48" y2="17.973"/>
				
					<line fill="none" stroke="#000000" stroke-width="0.2835" stroke-linejoin="round" stroke-miterlimit="10" x1="8.707" y1="21.198" x2="7.859" y2="20.351"/>
			</g>
			
				<line fill="none" stroke="#000000" stroke-width="0.2835" stroke-linejoin="round" stroke-miterlimit="10" x1="5.181" y1="18.273" x2="5.781" y2="17.672"/>
		</g>
	</g>
	<g>
		
			<circle fill="none" stroke="#000000" stroke-width="0.2835" stroke-linecap="round" stroke-linejoin="round" stroke-miterlimit="10" cx="21.255" cy="11.186" r="1.08"/>
		<g>
			
				<line fill="none" stroke="#000000" stroke-width="0.2835" stroke-linejoin="round" stroke-miterlimit="10" x1="18.975" y1="10.76" x2="18.975" y2="11.61"/>
			<g>
				
					<line fill="none" stroke="#000000" stroke-width="0.2835" stroke-linejoin="round" stroke-miterlimit="10" x1="22.337" y1="11.185" x2="23.536" y2="11.185"/>
				
					<line fill="none" stroke="#000000" stroke-width="0.2835" stroke-linejoin="round" stroke-miterlimit="10" x1="18.975" y1="11.185" x2="20.174" y2="11.185"/>
			</g>
			
				<line fill="none" stroke="#000000" stroke-width="0.2835" stroke-linejoin="round" stroke-miterlimit="10" x1="23.536" y1="10.76" x2="23.536" y2="11.61"/>
		</g>
		<g>
			
				<line fill="none" stroke="#000000" stroke-width="0.2835" stroke-linejoin="round" stroke-miterlimit="10" x1="19.342" y1="12.497" x2="19.943" y2="13.098"/>
			<g>
				
					<line fill="none" stroke="#000000" stroke-width="0.2835" stroke-linejoin="round" stroke-miterlimit="10" x1="22.021" y1="10.42" x2="22.868" y2="9.572"/>
				
					<line fill="none" stroke="#000000" stroke-width="0.2835" stroke-linejoin="round" stroke-miterlimit="10" x1="19.643" y1="12.797" x2="20.49" y2="11.95"/>
			</g>
			
				<line fill="none" stroke="#000000" stroke-width="0.2835" stroke-linejoin="round" stroke-miterlimit="10" x1="22.567" y1="9.271" x2="23.169" y2="9.873"/>
		</g>
		<g>
			
				<line fill="none" stroke="#000000" stroke-width="0.2835" stroke-linejoin="round" stroke-miterlimit="10" x1="20.829" y1="13.466" x2="21.681" y2="13.465"/>
			<g>
				
					<line fill="none" stroke="#000000" stroke-width="0.2835" stroke-linejoin="round" stroke-miterlimit="10" x1="21.255" y1="10.103" x2="21.255" y2="8.904"/>
				
					<line fill="none" stroke="#000000" stroke-width="0.2835" stroke-linejoin="round" stroke-miterlimit="10" x1="21.255" y1="13.465" x2="21.255" y2="12.267"/>
			</g>
			
				<line fill="none" stroke="#000000" stroke-width="0.2835" stroke-linejoin="round" stroke-miterlimit="10" x1="20.83" y1="8.904" x2="21.681" y2="8.904"/>
		</g>
		<g>
			
				<line fill="none" stroke="#000000" stroke-width="0.2835" stroke-linejoin="round" stroke-miterlimit="10" x1="22.566" y1="13.099" x2="23.169" y2="12.497"/>
			<g>
				
					<line fill="none" stroke="#000000" stroke-width="0.2835" stroke-linejoin="round" stroke-miterlimit="10" x1="20.49" y1="10.42" x2="19.642" y2="9.572"/>
				
					<line fill="none" stroke="#000000" stroke-width="0.2835" stroke-linejoin="round" stroke-miterlimit="10" x1="22.868" y1="12.798" x2="22.021" y2="11.95"/>
			</g>
			
				<line fill="none" stroke="#000000" stroke-width="0.2835" stroke-linejoin="round" stroke-miterlimit="10" x1="19.342" y1="9.873" x2="19.942" y2="9.271"/>
		</g>
	</g>
	<g>
		
			<circle fill="none" stroke="#000000" stroke-width="0.2835" stroke-linecap="round" stroke-linejoin="round" stroke-miterlimit="10" cx="21.255" cy="25.346" r="1.08"/>
		<g>
			
				<line fill="none" stroke="#000000" stroke-width="0.2835" stroke-linejoin="round" stroke-miterlimit="10" x1="18.975" y1="24.92" x2="18.975" y2="25.771"/>
			<g>
				
					<line fill="none" stroke="#000000" stroke-width="0.2835" stroke-linejoin="round" stroke-miterlimit="10" x1="22.337" y1="25.346" x2="23.536" y2="25.346"/>
				
					<line fill="none" stroke="#000000" stroke-width="0.2835" stroke-linejoin="round" stroke-miterlimit="10" x1="18.975" y1="25.346" x2="20.174" y2="25.346"/>
			</g>
			
				<line fill="none" stroke="#000000" stroke-width="0.2835" stroke-linejoin="round" stroke-miterlimit="10" x1="23.536" y1="24.92" x2="23.536" y2="25.771"/>
		</g>
		<g>
			
				<line fill="none" stroke="#000000" stroke-width="0.2835" stroke-linejoin="round" stroke-miterlimit="10" x1="19.342" y1="26.657" x2="19.943" y2="27.259"/>
			<g>
				
					<line fill="none" stroke="#000000" stroke-width="0.2835" stroke-linejoin="round" stroke-miterlimit="10" x1="22.021" y1="24.58" x2="22.868" y2="23.732"/>
				
					<line fill="none" stroke="#000000" stroke-width="0.2835" stroke-linejoin="round" stroke-miterlimit="10" x1="19.643" y1="26.958" x2="20.49" y2="26.11"/>
			</g>
			
				<line fill="none" stroke="#000000" stroke-width="0.2835" stroke-linejoin="round" stroke-miterlimit="10" x1="22.567" y1="23.432" x2="23.169" y2="24.033"/>
		</g>
		<g>
			
				<line fill="none" stroke="#000000" stroke-width="0.2835" stroke-linejoin="round" stroke-miterlimit="10" x1="20.829" y1="27.627" x2="21.681" y2="27.626"/>
			<g>
				
					<line fill="none" stroke="#000000" stroke-width="0.2835" stroke-linejoin="round" stroke-miterlimit="10" x1="21.255" y1="24.264" x2="21.255" y2="23.064"/>
				
					<line fill="none" stroke="#000000" stroke-width="0.2835" stroke-linejoin="round" stroke-miterlimit="10" x1="21.255" y1="27.626" x2="21.255" y2="26.428"/>
			</g>
			
				<line fill="none" stroke="#000000" stroke-width="0.2835" stroke-linejoin="round" stroke-miterlimit="10" x1="20.83" y1="23.064" x2="21.681" y2="23.064"/>
		</g>
		<g>
			
				<line fill="none" stroke="#000000" stroke-width="0.2835" stroke-linejoin="round" stroke-miterlimit="10" x1="22.566" y1="27.26" x2="23.169" y2="26.658"/>
			<g>
				
					<line fill="none" stroke="#000000" stroke-width="0.2835" stroke-linejoin="round" stroke-miterlimit="10" x1="20.49" y1="24.58" x2="19.642" y2="23.732"/>
				
					<line fill="none" stroke="#000000" stroke-width="0.2835" stroke-linejoin="round" stroke-miterlimit="10" x1="22.868" y1="26.959" x2="22.021" y2="26.111"/>
			</g>
			
				<line fill="none" stroke="#000000" stroke-width="0.2835" stroke-linejoin="round" stroke-miterlimit="10" x1="19.342" y1="24.033" x2="19.942" y2="23.432"/>
		</g>
	</g>
</g>
</svg>
