<?xml version="1.0" encoding="utf-8"?>
<!-- Generator: Adobe Illustrator 16.0.0, SVG Export Plug-In . SVG Version: 6.00 Build 0)  -->
<!DOCTYPE svg PUBLIC "-//W3C//DTD SVG 1.1//EN" "http://www.w3.org/Graphics/SVG/1.1/DTD/svg11.dtd">
<svg version="1.1" id="Ebene_1" xmlns="http://www.w3.org/2000/svg" xmlns:xlink="http://www.w3.org/1999/xlink" x="0px" y="0px"
	 width="28.35px" height="28.35px" viewBox="0 0 28.35 28.35" enable-background="new 0 0 28.35 28.35" xml:space="preserve">
<line fill="none" stroke="#000000" stroke-width="0.2835" stroke-miterlimit="10" x1="2.789" y1="5.668" x2="2.789" y2="22.707"/>
<line fill="none" stroke="#000000" stroke-width="0.2835" stroke-miterlimit="10" x1="9.389" y1="5.668" x2="2.789" y2="15.268"/>
<line fill="none" stroke="#000000" stroke-width="0.2863" stroke-miterlimit="10" x1="5.014" y1="12.033" x2="11.309" y2="22.707"/>
<polyline fill="none" stroke="#000000" stroke-width="0.2835" stroke-linejoin="bevel" stroke-miterlimit="10" points="
	16.949,5.668 21.269,22.707 25.469,5.668 "/>
</svg>
