<?xml version="1.0" encoding="utf-8"?>
<!-- Generator: Adobe Illustrator 16.0.0, SVG Export Plug-In . SVG Version: 6.00 Build 0)  -->
<!DOCTYPE svg PUBLIC "-//W3C//DTD SVG 1.1//EN" "http://www.w3.org/Graphics/SVG/1.1/DTD/svg11.dtd">
<svg version="1.1" id="Ebene_1" xmlns="http://www.w3.org/2000/svg" xmlns:xlink="http://www.w3.org/1999/xlink" x="0px" y="0px"
	 width="28.35px" height="28.35px" viewBox="0 0 28.35 28.35" enable-background="new 0 0 28.35 28.35" xml:space="preserve">
<g>
	<polyline fill="none" stroke="#000100" stroke-width="0.2835" stroke-linejoin="round" stroke-miterlimit="10" points="
		4.025,5.161 1.145,5.161 4.025,2.521 1.145,2.521 	"/>
	<path fill="#1D1D1B" d="M12.263,12.226c0,0.56,0.437,0.998,0.992,0.998c0.544,0,0.991-0.438,0.991-0.998
		c0-0.547-0.447-0.985-0.991-0.985C12.7,11.24,12.263,11.679,12.263,12.226"/>
	<path fill="#1D1D1B" d="M21.532,24.216c0,0.559,0.439,0.998,0.992,0.998c0.543,0,0.992-0.439,0.992-0.998
		c0-0.547-0.449-0.986-0.992-0.986C21.972,23.229,21.532,23.669,21.532,24.216"/>
	<path fill="#1D1D1B" d="M1.953,24.456c0,0.559,0.438,0.998,0.992,0.998c0.544,0,0.992-0.439,0.992-0.998
		c0-0.547-0.448-0.986-0.992-0.986C2.39,23.47,1.953,23.909,1.953,24.456"/>
	
		<line fill="none" stroke="#000100" stroke-width="0.2835" stroke-miterlimit="10" x1="18.646" y1="10.191" x2="24.406" y2="10.191"/>
	<g>
		<path fill="#1D1D1B" d="M6.334,10.056c0,0.56,0.437,0.998,0.991,0.998c0.544,0,0.992-0.438,0.992-0.998
			c0-0.547-0.448-0.986-0.992-0.986C6.77,9.069,6.334,9.509,6.334,10.056"/>
		<path fill="#1D1D1B" d="M3.453,10.056c0,0.56,0.438,0.998,0.992,0.998c0.544,0,0.992-0.438,0.992-0.998
			c0-0.547-0.448-0.986-0.992-0.986C3.89,9.069,3.453,9.509,3.453,10.056"/>
		<g>
			
				<line fill="none" stroke="#000100" stroke-width="0.2835" stroke-miterlimit="10" x1="3.006" y1="11.151" x2="8.765" y2="11.151"/>
		</g>
	</g>
	<g>
		<path fill="#1D1D1B" d="M24.775,2.146c0,0.56,0.438,0.998,0.992,0.998c0.545,0,0.992-0.438,0.992-0.998
			c0-0.547-0.447-0.985-0.992-0.985C25.212,1.159,24.775,1.599,24.775,2.146"/>
		<path fill="#1D1D1B" d="M21.896,2.146c0,0.56,0.436,0.998,0.992,0.998c0.543,0,0.99-0.438,0.99-0.998
			c0-0.547-0.447-0.985-0.99-0.985C22.329,1.159,21.896,1.599,21.896,2.146"/>
		<g>
			
				<line fill="none" stroke="#000100" stroke-width="0.2835" stroke-miterlimit="10" x1="21.447" y1="3.241" x2="27.204" y2="3.241"/>
		</g>
	</g>
	<path fill="none" stroke="#000100" stroke-width="0.2835" stroke-linecap="round" stroke-miterlimit="10" d="M4.506,17.511
		c0,1.121,0.909,2.041,2.04,2.041c1.119,0,2.04-0.92,2.04-2.041c0-1.129-0.921-2.039-2.04-2.039
		C5.415,15.472,4.506,16.382,4.506,17.511"/>
	<g>
		<path fill="none" stroke="#000100" stroke-width="0.2835" stroke-linecap="round" stroke-miterlimit="10" d="M22.726,16.312
			c0,1.12,0.91,2.041,2.041,2.041c1.119,0,2.041-0.921,2.041-2.041c0-1.131-0.922-2.041-2.041-2.041
			C23.636,14.271,22.726,15.181,22.726,16.312"/>
	</g>
	
		<line fill="none" stroke="#000100" stroke-width="0.2835" stroke-miterlimit="10" x1="12.895" y1="18.831" x2="18.646" y2="18.831"/>
	<polygon fill="#000100" points="10.975,21.704 12.539,24.821 10.975,27.94 9.422,24.821 	"/>
	<polygon fill="#000100" points="12.721,5.731 15.177,1.356 17.628,5.731 	"/>
</g>
</svg>
