<?xml version="1.0" encoding="utf-8"?>
<!-- Generator: Adobe Illustrator 16.0.0, SVG Export Plug-In . SVG Version: 6.00 Build 0)  -->
<!DOCTYPE svg PUBLIC "-//W3C//DTD SVG 1.1//EN" "http://www.w3.org/Graphics/SVG/1.1/DTD/svg11.dtd">
<svg version="1.1" id="Ebene_1" xmlns="http://www.w3.org/2000/svg" xmlns:xlink="http://www.w3.org/1999/xlink" x="0px" y="0px"
	 width="28.35px" height="28.35px" viewBox="0 0 28.35 28.35" enable-background="new 0 0 28.35 28.35" xml:space="preserve">
<g>
	<polygon fill="none" stroke="#000000" stroke-width="0.2835" stroke-miterlimit="10" points="1.637,4.767 2.117,3.087 2.117,2.007 
		2.957,1.167 3.917,1.167 4.396,2.248 5.236,3.087 4.156,3.687 2.957,5.607 	"/>
	<polygon fill="none" stroke="#000000" stroke-width="0.2835" stroke-miterlimit="10" points="15.797,18.988 16.277,17.309 
		16.277,16.229 17.117,15.389 18.077,15.389 18.557,16.469 19.396,17.309 18.316,17.908 17.117,19.828 	"/>
	<polygon fill="#000100" points="15.264,5.542 17.718,1.167 20.17,5.542 	"/>
	<polygon fill="#000100" points="22.34,12.623 24.794,8.248 27.246,12.623 	"/>
	<polygon fill="#000100" points="8.184,12.623 10.638,8.248 13.09,12.623 	"/>
	<polygon fill="#000100" points="1.104,19.613 3.558,15.238 6.01,19.613 	"/>
	<polygon fill="#000100" points="22.34,26.781 24.794,22.406 27.246,26.781 	"/>
	<polygon fill="#000100" points="8.184,26.781 10.638,22.406 13.09,26.781 	"/>
</g>
</svg>
