<?xml version="1.0" encoding="utf-8"?>
<!-- Generator: Adobe Illustrator 16.0.0, SVG Export Plug-In . SVG Version: 6.00 Build 0)  -->
<!DOCTYPE svg PUBLIC "-//W3C//DTD SVG 1.1//EN" "http://www.w3.org/Graphics/SVG/1.1/DTD/svg11.dtd">
<svg version="1.1" id="Ebene_1" xmlns="http://www.w3.org/2000/svg" xmlns:xlink="http://www.w3.org/1999/xlink" x="0px" y="0px"
	 width="28.35px" height="28.35px" viewBox="0 0 28.35 28.35" enable-background="new 0 0 28.35 28.35" xml:space="preserve">
<g>
	<path fill="#000100" d="M6.257,17.512c0,0.174,0.124,0.297,0.298,0.297c0.149,0,0.298-0.123,0.298-0.297
		c0-0.148-0.148-0.299-0.298-0.299C6.381,17.213,6.257,17.363,6.257,17.512"/>
	<path fill="#1D1D1B" d="M16.934,9.823c0,0.846,0.662,1.512,1.504,1.512c0.822,0,1.502-0.666,1.502-1.512
		c0-0.827-0.68-1.493-1.502-1.493C17.596,8.331,16.934,8.997,16.934,9.823"/>
	<path fill="#1D1D1B" d="M21.256,23.972c0,0.52,0.404,0.928,0.92,0.928c0.506,0,0.922-0.408,0.922-0.928
		c0-0.508-0.416-0.916-0.922-0.916C21.66,23.056,21.256,23.464,21.256,23.972"/>
	<path fill="#1D1D1B" d="M1.922,24.347c0,0.52,0.405,0.928,0.921,0.928c0.505,0,0.921-0.408,0.921-0.928
		c0-0.508-0.416-0.916-0.921-0.916C2.328,23.431,1.922,23.839,1.922,24.347"/>
	<path fill="#000100" d="M12.474,18.69c0,0.174,0.124,0.297,0.298,0.297c0.149,0,0.298-0.123,0.298-0.297
		c0-0.15-0.148-0.299-0.298-0.299C12.598,18.392,12.474,18.54,12.474,18.69"/>
	<path fill="#000100" d="M23.141,10.648c0,0.174,0.125,0.297,0.299,0.297c0.148,0,0.297-0.123,0.297-0.297
		c0-0.149-0.148-0.299-0.297-0.299C23.266,10.35,23.141,10.499,23.141,10.648"/>
	<g>
		<path fill="#1D1D1B" d="M23.996,2.05c0,0.559,0.438,0.998,0.992,0.998c0.545,0,0.992-0.439,0.992-0.998
			c0-0.546-0.447-0.986-0.992-0.986C24.434,1.064,23.996,1.503,23.996,2.05"/>
		<path fill="#1D1D1B" d="M21.117,2.05c0,0.559,0.436,0.998,0.992,0.998c0.543,0,0.99-0.439,0.99-0.998
			c0-0.546-0.447-0.986-0.99-0.986C21.553,1.064,21.117,1.503,21.117,2.05"/>
		<g>
			
				<line fill="none" stroke="#000100" stroke-width="0.2835" stroke-miterlimit="10" x1="20.668" y1="3.146" x2="26.428" y2="3.146"/>
		</g>
	</g>
	<g>
		<path fill="#1D1D1B" d="M6.076,9.944c0,0.559,0.438,0.998,0.992,0.998c0.545,0,0.992-0.439,0.992-0.998
			c0-0.546-0.447-0.986-0.992-0.986C6.513,8.958,6.076,9.397,6.076,9.944"/>
		<path fill="#1D1D1B" d="M3.197,9.944c0,0.559,0.437,0.998,0.992,0.998c0.543,0,0.991-0.439,0.991-0.998
			c0-0.546-0.448-0.986-0.991-0.986C3.633,8.958,3.197,9.397,3.197,9.944"/>
		<g>
			<line fill="none" stroke="#000100" stroke-width="0.2835" stroke-miterlimit="10" x1="2.748" y1="11.04" x2="8.507" y2="11.04"/>
		</g>
	</g>
	<g>
		<path fill="#1D1D1B" d="M12.623,25.807c0,0.559,0.438,0.998,0.992,0.998c0.545,0,0.992-0.439,0.992-0.998
			c0-0.546-0.447-0.985-0.992-0.985C13.06,24.821,12.623,25.261,12.623,25.807"/>
		<path fill="#1D1D1B" d="M9.744,25.807c0,0.559,0.437,0.998,0.992,0.998c0.543,0,0.991-0.439,0.991-0.998
			c0-0.546-0.448-0.985-0.991-0.985C10.18,24.821,9.744,25.261,9.744,25.807"/>
		<g>
			
				<line fill="none" stroke="#000100" stroke-width="0.2835" stroke-miterlimit="10" x1="9.294" y1="26.903" x2="15.055" y2="26.903"/>
		</g>
	</g>
	<g>
		<line fill="none" stroke="#000100" stroke-width="0.2835" stroke-miterlimit="10" x1="2.47" y1="4.194" x2="7.75" y2="4.194"/>
		<g>
			<g>
				
					<line fill="none" stroke="#000100" stroke-width="0.2835" stroke-linecap="square" stroke-miterlimit="10" x1="5.111" y1="1.285" x2="5.111" y2="2.245"/>
			</g>
			<g>
				
					<line fill="none" stroke="#000100" stroke-width="0.2835" stroke-linecap="square" stroke-miterlimit="10" x1="5.111" y1="2.965" x2="5.111" y2="4.166"/>
			</g>
		</g>
	</g>
	
		<circle fill="none" stroke="#000000" stroke-width="0.2835" stroke-linecap="round" stroke-linejoin="round" stroke-miterlimit="10" cx="24.666" cy="16.075" r="1.08"/>
	
		<circle fill="none" stroke="#000000" stroke-width="0.2835" stroke-linecap="round" stroke-linejoin="round" stroke-miterlimit="10" cx="13.615" cy="4.194" r="1.68"/>
	
		<circle fill="none" stroke="#000000" stroke-width="0.2835" stroke-linecap="round" stroke-linejoin="round" stroke-miterlimit="10" cx="6.555" cy="17.511" r="1.68"/>
</g>
</svg>
