<?xml version="1.0" encoding="utf-8"?>
<!-- Generator: Adobe Illustrator 16.0.0, SVG Export Plug-In . SVG Version: 6.00 Build 0)  -->
<!DOCTYPE svg PUBLIC "-//W3C//DTD SVG 1.1//EN" "http://www.w3.org/Graphics/SVG/1.1/DTD/svg11.dtd">
<svg version="1.1" id="Ebene_1" xmlns="http://www.w3.org/2000/svg" xmlns:xlink="http://www.w3.org/1999/xlink" x="0px" y="0px"
	 width="28.35px" height="28.35px" viewBox="0 0 28.35 28.35" enable-background="new 0 0 28.35 28.35" xml:space="preserve">
<g>
	<path fill="#1D1D1B" d="M16.585,3.382c0,0.521,0.405,0.928,0.922,0.928c0.506,0,0.92-0.407,0.92-0.928
		c0-0.507-0.414-0.914-0.92-0.914C16.99,2.468,16.585,2.875,16.585,3.382"/>
	<path fill="#1D1D1B" d="M9.517,24.703c0,0.521,0.405,0.928,0.922,0.928c0.506,0,0.92-0.406,0.92-0.928
		c0-0.506-0.414-0.914-0.92-0.914C9.922,23.789,9.517,24.197,9.517,24.703"/>
	<polygon fill="#000100" points="0.893,5.577 3.347,1.202 5.799,5.577 	"/>
	<polygon fill="#000100" points="0.893,19.736 3.347,15.361 5.799,19.736 	"/>
	<polygon fill="#000100" points="15.054,19.736 17.508,15.361 19.96,19.736 	"/>
	<polygon fill="#000100" points="22.169,12.621 24.623,8.246 27.075,12.621 	"/>
	<path fill="none" stroke="#1D1D1B" stroke-width="0.2835" stroke-miterlimit="10" d="M7.603,9.867c0.71,0,0.665,0.604,1.346,0.604
		c0.897,0,0.819-0.573,1.485-0.589c0.678-0.016,0.771,0.589,1.42,0.589c0.82,0,0.71-0.604,1.418-0.604"/>
	<path fill="none" stroke="#1D1D1B" stroke-width="0.2835" stroke-miterlimit="10" d="M21.788,24.027
		c0.71,0,0.665,0.604,1.346,0.604c0.897,0,0.819-0.572,1.485-0.588c0.678-0.016,0.771,0.588,1.42,0.588
		c0.82,0,0.71-0.604,1.418-0.604"/>
</g>
</svg>
