<?xml version="1.0" encoding="utf-8"?>
<!-- Generator: Adobe Illustrator 16.0.0, SVG Export Plug-In . SVG Version: 6.00 Build 0)  -->
<!DOCTYPE svg PUBLIC "-//W3C//DTD SVG 1.1//EN" "http://www.w3.org/Graphics/SVG/1.1/DTD/svg11.dtd">
<svg version="1.1" id="Ebene_1" xmlns="http://www.w3.org/2000/svg" xmlns:xlink="http://www.w3.org/1999/xlink" x="0px" y="0px"
	 width="28.35px" height="28.35px" viewBox="0 0 28.35 28.35" enable-background="new 0 0 28.35 28.35" xml:space="preserve">
<g>
	<path fill="none" stroke="#000000" stroke-width="0.2835" stroke-linejoin="round" stroke-miterlimit="10" d="M6.885,5.729
		c-0.36-0.48-0.721-0.601-1.2-0.601c-0.841,0-1.44,0.601-1.44,1.32c0,0.36,0.12,0.72,0.36,0.96"/>
	<path fill="none" stroke="#000000" stroke-width="0.2835" stroke-linejoin="round" stroke-miterlimit="10" d="M7.125,5.488
		c0.359,0.24,0.719,0.479,1.199,0.479c0.84,0,1.561-0.6,1.561-1.319c0-0.36-0.24-0.721-0.48-0.96"/>
	<path fill="none" stroke="#000000" stroke-width="0.2835" stroke-linejoin="round" stroke-miterlimit="10" d="M21.105,11.368
		c-0.361-0.48-0.721-0.601-1.201-0.601c-0.84,0-1.439,0.601-1.439,1.32c0,0.36,0.119,0.72,0.359,0.96"/>
	<path fill="none" stroke="#000000" stroke-width="0.2835" stroke-linejoin="round" stroke-miterlimit="10" d="M21.346,11.128
		c0.359,0.24,0.719,0.479,1.199,0.479c0.84,0,1.561-0.6,1.561-1.319c0-0.36-0.24-0.721-0.48-0.96"/>
	<path fill="none" stroke="#000000" stroke-width="0.2835" stroke-linejoin="round" stroke-miterlimit="10" d="M6.885,19.873
		c-0.36-0.48-0.721-0.601-1.2-0.601c-0.841,0-1.44,0.601-1.44,1.32c0,0.36,0.12,0.72,0.36,0.96"/>
	<path fill="none" stroke="#000000" stroke-width="0.2835" stroke-linejoin="round" stroke-miterlimit="10" d="M7.125,19.633
		c0.359,0.24,0.719,0.479,1.199,0.479c0.84,0,1.561-0.6,1.561-1.319c0-0.36-0.24-0.721-0.48-0.96"/>
	<path fill="none" stroke="#000000" stroke-width="0.2835" stroke-linejoin="round" stroke-miterlimit="10" d="M21.105,25.513
		c-0.361-0.48-0.721-0.601-1.201-0.601c-0.84,0-1.439,0.601-1.439,1.32c0,0.36,0.119,0.72,0.359,0.96"/>
	<path fill="none" stroke="#000000" stroke-width="0.2835" stroke-linejoin="round" stroke-miterlimit="10" d="M21.346,25.272
		c0.359,0.24,0.719,0.479,1.199,0.479c0.84,0,1.561-0.6,1.561-1.319c0-0.36-0.24-0.721-0.48-0.96"/>
</g>
</svg>
