<?xml version="1.0" encoding="utf-8"?>
<!-- Generator: Adobe Illustrator 16.0.0, SVG Export Plug-In . SVG Version: 6.00 Build 0)  -->
<!DOCTYPE svg PUBLIC "-//W3C//DTD SVG 1.1//EN" "http://www.w3.org/Graphics/SVG/1.1/DTD/svg11.dtd">
<svg version="1.1" id="Ebene_1" xmlns="http://www.w3.org/2000/svg" xmlns:xlink="http://www.w3.org/1999/xlink" x="0px" y="0px"
	 width="28.35px" height="28.35px" viewBox="0 0 28.35 28.35" enable-background="new 0 0 28.35 28.35" xml:space="preserve">
<g>
	<g>
		<path fill="#1D1D1B" d="M5.087,2.365c0-0.56-0.438-0.998-0.992-0.998c-0.544,0-0.991,0.438-0.991,0.998
			c0,0.546,0.447,0.984,0.991,0.984C4.65,3.351,5.087,2.911,5.087,2.365"/>
		<g>
			<line fill="none" stroke="#000100" stroke-width="0.2835" stroke-miterlimit="10" x1="6.975" y1="1.269" x2="1.215" y2="1.269"/>
		</g>
	</g>
	<g>
		<path fill="#1D1D1B" d="M24.946,2.365c0-0.56-0.437-0.998-0.991-0.998c-0.544,0-0.991,0.438-0.991,0.998
			c0,0.546,0.447,0.984,0.991,0.984C24.51,3.351,24.946,2.911,24.946,2.365"/>
		<g>
			
				<line fill="none" stroke="#000100" stroke-width="0.2835" stroke-miterlimit="10" x1="26.834" y1="1.269" x2="21.074" y2="1.269"/>
		</g>
	</g>
	<g>
		<path fill="#1D1D1B" d="M14.987,4.458c0-0.56-0.437-0.998-0.991-0.998c-0.544,0-0.991,0.438-0.991,0.998
			c0,0.546,0.447,0.984,0.991,0.984C14.551,5.443,14.987,5.004,14.987,4.458"/>
		<g>
			
				<line fill="none" stroke="#000100" stroke-width="0.2835" stroke-miterlimit="10" x1="16.875" y1="3.361" x2="11.115" y2="3.361"/>
		</g>
	</g>
	<g>
		<path fill="#1D1D1B" d="M7.127,10.398C7.127,9.84,6.69,9.4,6.135,9.4c-0.544,0-0.991,0.439-0.991,0.998
			c0,0.546,0.447,0.985,0.991,0.985C6.69,11.384,7.127,10.944,7.127,10.398"/>
		<g>
			<line fill="none" stroke="#000100" stroke-width="0.2835" stroke-miterlimit="10" x1="9.015" y1="9.302" x2="3.255" y2="9.302"/>
		</g>
	</g>
	<g>
		<path fill="#1D1D1B" d="M22.728,10.098c0-0.559-0.437-0.998-0.992-0.998c-0.544,0-0.99,0.439-0.99,0.998
			c0,0.546,0.446,0.985,0.99,0.985C22.291,11.083,22.728,10.644,22.728,10.098"/>
		<g>
			
				<line fill="none" stroke="#000100" stroke-width="0.2835" stroke-miterlimit="10" x1="24.615" y1="9.001" x2="18.855" y2="9.001"/>
		</g>
	</g>
	<g>
		<path fill="#1D1D1B" d="M26.087,16.338c0-0.56-0.438-0.998-0.992-0.998c-0.544,0-0.991,0.438-0.991,0.998
			c0,0.546,0.447,0.985,0.991,0.985C25.65,17.323,26.087,16.884,26.087,16.338"/>
		<g>
			
				<line fill="none" stroke="#000100" stroke-width="0.2835" stroke-miterlimit="10" x1="27.975" y1="15.241" x2="22.215" y2="15.241"/>
		</g>
	</g>
	<g>
		<path fill="#1D1D1B" d="M14.447,12.378c0-0.56-0.437-0.998-0.991-0.998c-0.544,0-0.991,0.438-0.991,0.998
			c0,0.546,0.447,0.984,0.991,0.984C14.011,13.363,14.447,12.924,14.447,12.378"/>
		<g>
			
				<line fill="none" stroke="#000100" stroke-width="0.2835" stroke-miterlimit="10" x1="16.335" y1="11.281" x2="10.575" y2="11.281"/>
		</g>
	</g>
	<g>
		<path fill="#1D1D1B" d="M7.907,17.777c0-0.559-0.438-0.998-0.992-0.998c-0.544,0-0.991,0.439-0.991,0.998
			c0,0.547,0.447,0.985,0.991,0.985C7.471,18.763,7.907,18.323,7.907,17.777"/>
		<g>
			
				<line fill="none" stroke="#000100" stroke-width="0.2835" stroke-miterlimit="10" x1="9.795" y1="16.681" x2="4.035" y2="16.681"/>
		</g>
	</g>
	<g>
		<path fill="#1D1D1B" d="M16.968,18.862c0-0.559-0.437-0.997-0.992-0.997c-0.544,0-0.991,0.438-0.991,0.997
			c0,0.547,0.447,0.985,0.991,0.985C16.531,19.848,16.968,19.408,16.968,18.862"/>
		<g>
			
				<line fill="none" stroke="#000100" stroke-width="0.2835" stroke-miterlimit="10" x1="18.855" y1="17.766" x2="13.096" y2="17.766"/>
		</g>
	</g>
	<g>
		<path fill="#1D1D1B" d="M23.507,24.258c0-0.559-0.438-0.998-0.992-0.998c-0.544,0-0.991,0.439-0.991,0.998
			c0,0.546,0.447,0.985,0.991,0.985C23.07,25.243,23.507,24.804,23.507,24.258"/>
		<g>
			
				<line fill="none" stroke="#000100" stroke-width="0.2835" stroke-miterlimit="10" x1="25.395" y1="23.161" x2="19.635" y2="23.161"/>
		</g>
	</g>
	<g>
		<path fill="#1D1D1B" d="M4.247,24.618c0-0.56-0.437-0.998-0.992-0.998c-0.544,0-0.991,0.438-0.991,0.998
			c0,0.547,0.447,0.985,0.991,0.985C3.811,25.604,4.247,25.165,4.247,24.618"/>
		<g>
			
				<line fill="none" stroke="#000100" stroke-width="0.2835" stroke-miterlimit="10" x1="6.135" y1="23.522" x2="0.375" y2="23.522"/>
		</g>
	</g>
	<g>
		<path fill="#1D1D1B" d="M13.606,26.298c0-0.559-0.437-0.998-0.991-0.998c-0.545,0-0.991,0.439-0.991,0.998
			c0,0.547,0.446,0.986,0.991,0.986C13.17,27.284,13.606,26.845,13.606,26.298"/>
		<g>
			
				<line fill="none" stroke="#000100" stroke-width="0.2835" stroke-miterlimit="10" x1="15.494" y1="25.202" x2="9.734" y2="25.202"/>
		</g>
	</g>
</g>
</svg>
