<?xml version="1.0" encoding="utf-8"?>
<!-- Generator: Adobe Illustrator 16.0.0, SVG Export Plug-In . SVG Version: 6.00 Build 0)  -->
<!DOCTYPE svg PUBLIC "-//W3C//DTD SVG 1.1//EN" "http://www.w3.org/Graphics/SVG/1.1/DTD/svg11.dtd">
<svg version="1.1" id="Ebene_1" xmlns="http://www.w3.org/2000/svg" xmlns:xlink="http://www.w3.org/1999/xlink" x="0px" y="0px"
	 width="28.35px" height="28.35px" viewBox="0 0 28.35 28.35" enable-background="new 0 0 28.35 28.35" xml:space="preserve">
<g>
	<path fill="none" stroke="#000000" stroke-width="0.2835" stroke-miterlimit="10" d="M28.357,1.325
		c-4.934,0-8.914,5.64-14.172,5.64c-5.26,0-9.24-5.64-14.174-5.64"/>
	<path fill="none" stroke="#000000" stroke-width="0.2835" stroke-miterlimit="10" d="M28.357,8.405
		c-4.934,0-8.914,5.64-14.172,5.64c-5.26,0-9.24-5.64-14.174-5.64"/>
	<path fill="none" stroke="#000000" stroke-width="0.2835" stroke-miterlimit="10" d="M28.357,15.484
		c-4.934,0-8.914,5.641-14.172,5.641c-5.26,0-9.24-5.641-14.174-5.641"/>
	<path fill="none" stroke="#000000" stroke-width="0.2835" stroke-miterlimit="10" d="M28.357,22.564
		c-4.934,0-8.914,5.641-14.172,5.641c-5.26,0-9.24-5.641-14.174-5.641"/>
</g>
</svg>
