<?xml version="1.0" encoding="utf-8"?>
<!-- Generator: Adobe Illustrator 16.0.0, SVG Export Plug-In . SVG Version: 6.00 Build 0)  -->
<!DOCTYPE svg PUBLIC "-//W3C//DTD SVG 1.1//EN" "http://www.w3.org/Graphics/SVG/1.1/DTD/svg11.dtd">
<svg version="1.1" id="Ebene_1" xmlns="http://www.w3.org/2000/svg" xmlns:xlink="http://www.w3.org/1999/xlink" x="0px" y="0px"
	 width="28.35px" height="28.35px" viewBox="0 0 28.35 28.35" enable-background="new 0 0 28.35 28.35" xml:space="preserve">
<g>
	<polygon fill="none" stroke="#000000" stroke-width="0.2835" stroke-miterlimit="10" points="23.175,26.068 23.654,24.389 
		23.654,23.189 24.615,22.35 25.455,22.35 25.935,23.549 25.455,24.389 25.695,24.988 24.615,26.908 	"/>
	<polygon fill="#000100" points="15.645,1.368 18.099,5.743 20.551,1.368 	"/>
	<polygon fill="#000100" points="15.645,15.422 18.099,19.797 20.551,15.422 	"/>
	<polygon fill="#000100" points="8.564,8.448 11.019,12.823 13.471,8.448 	"/>
	<polygon fill="#000100" points="8.564,22.607 11.019,26.982 13.471,22.607 	"/>
	
		<circle fill="none" stroke="#000000" stroke-width="0.2835" stroke-linecap="round" stroke-linejoin="round" stroke-miterlimit="10" cx="3.855" cy="17.549" r="1.679"/>
	<polygon fill="none" stroke="#000000" stroke-width="0.2835" stroke-miterlimit="10" points="1.575,3.388 1.575,2.548 2.774,1.468 
		3.854,1.468 5.055,2.308 5.534,2.548 5.895,2.789 6.135,3.388 5.895,4.228 5.534,4.228 4.694,4.829 4.215,5.069 3.854,5.429 
		3.015,5.069 2.774,5.069 2.175,4.589 1.575,3.989 	"/>
	<g>
		
			<circle fill="none" stroke="#000000" stroke-width="0.2835" stroke-linecap="round" stroke-linejoin="round" stroke-miterlimit="10" cx="25.095" cy="10.469" r="1.679"/>
		<path fill="#000100" d="M24.798,10.47c0,0.174,0.123,0.297,0.297,0.297c0.149,0,0.299-0.123,0.299-0.297
			c0-0.149-0.149-0.299-0.299-0.299C24.921,10.171,24.798,10.321,24.798,10.47"/>
	</g>
	<path fill="#000100" d="M3.557,3.39c0,0.174,0.123,0.297,0.297,0.297c0.149,0,0.299-0.123,0.299-0.297
		c0-0.149-0.149-0.299-0.299-0.299C3.68,3.091,3.557,3.241,3.557,3.39"/>
</g>
</svg>
