<?xml version="1.0" encoding="utf-8"?>
<!-- Generator: Adobe Illustrator 16.0.0, SVG Export Plug-In . SVG Version: 6.00 Build 0)  -->
<!DOCTYPE svg PUBLIC "-//W3C//DTD SVG 1.1//EN" "http://www.w3.org/Graphics/SVG/1.1/DTD/svg11.dtd">
<svg version="1.1" id="Ebene_1" xmlns="http://www.w3.org/2000/svg" xmlns:xlink="http://www.w3.org/1999/xlink" x="0px" y="0px"
	 width="28.35px" height="28.35px" viewBox="0 0 28.35 28.35" enable-background="new 0 0 28.35 28.35" xml:space="preserve">
<g>
	<path fill="#1D1D1B" d="M22.572,2.298c0,0.846,0.661,1.512,1.503,1.512c0.823,0,1.502-0.666,1.502-1.512
		c0-0.827-0.679-1.493-1.502-1.493C23.233,0.805,22.572,1.471,22.572,2.298"/>
	<path fill="#1D1D1B" d="M2.772,2.298c0,0.846,0.661,1.512,1.502,1.512c0.824,0,1.502-0.666,1.502-1.512
		c0-0.827-0.678-1.493-1.502-1.493C3.434,0.805,2.772,1.471,2.772,2.298"/>
	<path fill="#1D1D1B" d="M2.772,16.698c0,0.846,0.661,1.512,1.502,1.512c0.824,0,1.502-0.666,1.502-1.512
		c0-0.826-0.678-1.492-1.502-1.492C3.434,15.206,2.772,15.872,2.772,16.698"/>
	<path fill="#1D1D1B" d="M22.571,16.698c0,0.846,0.662,1.512,1.503,1.512c0.823,0,1.502-0.666,1.502-1.512
		c0-0.826-0.679-1.492-1.502-1.492C23.233,15.206,22.571,15.872,22.571,16.698"/>
	<path fill="#1D1D1B" d="M16.073,18.742c0,0.519,0.406,0.927,0.922,0.927c0.505,0,0.92-0.408,0.92-0.927
		c0-0.507-0.415-0.915-0.92-0.915C16.479,17.827,16.073,18.235,16.073,18.742"/>
	<path fill="#1D1D1B" d="M20.394,10.222c0,0.519,0.405,0.927,0.921,0.927c0.505,0,0.921-0.408,0.921-0.927
		c0-0.507-0.416-0.916-0.921-0.916C20.799,9.306,20.394,9.714,20.394,10.222"/>
	<path fill="#1D1D1B" d="M5.394,10.222c0,0.519,0.405,0.927,0.921,0.927c0.506,0,0.921-0.408,0.921-0.927
		c0-0.507-0.415-0.916-0.921-0.916C5.799,9.306,5.394,9.714,5.394,10.222"/>
	<path fill="#1D1D1B" d="M5.394,23.542c0,0.52,0.405,0.928,0.921,0.928c0.506,0,0.921-0.408,0.921-0.928
		c0-0.508-0.415-0.916-0.921-0.916C5.799,22.626,5.394,23.034,5.394,23.542"/>
	<path fill="#000100" d="M13.937,4.229c0,0.174,0.124,0.297,0.298,0.297c0.148,0,0.298-0.123,0.298-0.297
		c0-0.149-0.149-0.299-0.298-0.299C14.061,3.93,13.937,4.079,13.937,4.229"/>
	<path fill="#000100" d="M13.279,12.148c0,0.174,0.123,0.297,0.297,0.297c0.149,0,0.298-0.123,0.298-0.297
		c0-0.149-0.148-0.299-0.298-0.299C13.402,11.85,13.279,11.999,13.279,12.148"/>
	<path fill="#000100" d="M22.456,24.148c0,0.174,0.124,0.297,0.298,0.297c0.149,0,0.298-0.123,0.298-0.297
		c0-0.149-0.148-0.299-0.298-0.299C22.58,23.85,22.456,23.999,22.456,24.148"/>
	<path fill="#000100" d="M12.497,26.068c0,0.174,0.123,0.297,0.297,0.297c0.149,0,0.298-0.123,0.298-0.297
		c0-0.149-0.148-0.299-0.298-0.299C12.62,25.77,12.497,25.919,12.497,26.068"/>
</g>
</svg>
