<?xml version="1.0" encoding="utf-8"?>
<!-- Generator: Adobe Illustrator 16.0.0, SVG Export Plug-In . SVG Version: 6.00 Build 0)  -->
<!DOCTYPE svg PUBLIC "-//W3C//DTD SVG 1.1//EN" "http://www.w3.org/Graphics/SVG/1.1/DTD/svg11.dtd">
<svg version="1.1" id="Ebene_1" xmlns="http://www.w3.org/2000/svg" xmlns:xlink="http://www.w3.org/1999/xlink" x="0px" y="0px"
	 width="28.35px" height="28.35px" viewBox="0 0 28.35 28.35" enable-background="new 0 0 28.35 28.35" xml:space="preserve">
<g>
	<path fill-rule="evenodd" clip-rule="evenodd" fill="#FFFFFF" d="M5.981,2.85c0-1.201-0.961-2.041-2.041-2.041
		c-1.199,0-2.039,0.84-2.039,2.041c0,1.08,0.84,2.039,2.039,2.039C5.021,4.889,5.981,3.93,5.981,2.85"/>
	
		<path fill="none" stroke="#000000" stroke-width="0.2835" stroke-linecap="round" stroke-linejoin="round" stroke-miterlimit="10" d="
		M5.98,2.837c0-1.201-0.961-2.041-2.041-2.041C2.74,0.796,1.9,1.636,1.9,2.837c0,1.08,0.84,2.039,2.039,2.039
		C5.02,4.876,5.98,3.917,5.98,2.837z"/>
	
		<line fill="none" stroke="#000000" stroke-width="0.2842" stroke-linejoin="round" stroke-miterlimit="10" x1="3.941" y1="0.001" x2="3.941" y2="5.671"/>
</g>
<g>
	<path fill-rule="evenodd" clip-rule="evenodd" fill="#FFFFFF" d="M7.421,10.183c0-1.201-0.961-2.041-2.041-2.041
		c-1.199,0-2.039,0.84-2.039,2.041c0,1.08,0.84,2.039,2.039,2.039C6.46,12.222,7.421,11.263,7.421,10.183"/>
	
		<path fill="none" stroke="#000000" stroke-width="0.2835" stroke-linecap="round" stroke-linejoin="round" stroke-miterlimit="10" d="
		M7.42,10.17c0-1.201-0.961-2.041-2.041-2.041c-1.199,0-2.039,0.84-2.039,2.041c0,1.08,0.84,2.039,2.039,2.039
		C6.459,12.209,7.42,11.25,7.42,10.17z"/>
	
		<line fill="none" stroke="#000000" stroke-width="0.2842" stroke-linejoin="round" stroke-miterlimit="10" x1="5.381" y1="7.334" x2="5.381" y2="13.004"/>
</g>
<g>
	<path fill-rule="evenodd" clip-rule="evenodd" fill="#FFFFFF" d="M9.101,17.623c0-1.201-0.961-2.041-2.041-2.041
		c-1.199,0-2.039,0.84-2.039,2.041c0,1.08,0.84,2.039,2.039,2.039C8.14,19.662,9.101,18.703,9.101,17.623"/>
	
		<path fill="none" stroke="#000000" stroke-width="0.2835" stroke-linecap="round" stroke-linejoin="round" stroke-miterlimit="10" d="
		M9.1,17.609c0-1.201-0.961-2.041-2.041-2.041c-1.199,0-2.039,0.84-2.039,2.041c0,1.08,0.84,2.039,2.039,2.039
		C8.139,19.648,9.1,18.689,9.1,17.609z"/>
	
		<line fill="none" stroke="#000000" stroke-width="0.2842" stroke-linejoin="round" stroke-miterlimit="10" x1="7.061" y1="14.774" x2="7.061" y2="20.443"/>
</g>
<g>
	<path fill-rule="evenodd" clip-rule="evenodd" fill="#FFFFFF" d="M18.102,17.623c0-1.201-0.961-2.041-2.041-2.041
		c-1.199,0-2.039,0.84-2.039,2.041c0,1.08,0.84,2.039,2.039,2.039C17.141,19.662,18.102,18.703,18.102,17.623"/>
	
		<path fill="none" stroke="#000000" stroke-width="0.2835" stroke-linecap="round" stroke-linejoin="round" stroke-miterlimit="10" d="
		M18.101,17.609c0-1.201-0.961-2.041-2.041-2.041c-1.199,0-2.039,0.84-2.039,2.041c0,1.08,0.84,2.039,2.039,2.039
		C17.14,19.648,18.101,18.689,18.101,17.609z"/>
	
		<line fill="none" stroke="#000000" stroke-width="0.2842" stroke-linejoin="round" stroke-miterlimit="10" x1="16.062" y1="14.774" x2="16.062" y2="20.443"/>
</g>
<g>
	<path fill-rule="evenodd" clip-rule="evenodd" fill="#FFFFFF" d="M28.235,17.623c0-1.201-0.961-2.041-2.041-2.041
		c-1.199,0-2.039,0.84-2.039,2.041c0,1.08,0.84,2.039,2.039,2.039C27.274,19.662,28.235,18.703,28.235,17.623"/>
	
		<path fill="none" stroke="#000000" stroke-width="0.2835" stroke-linecap="round" stroke-linejoin="round" stroke-miterlimit="10" d="
		M28.234,17.609c0-1.201-0.961-2.041-2.041-2.041c-1.199,0-2.039,0.84-2.039,2.041c0,1.08,0.84,2.039,2.039,2.039
		C27.273,19.648,28.234,18.689,28.234,17.609z"/>
	
		<line fill="none" stroke="#000000" stroke-width="0.2842" stroke-linejoin="round" stroke-miterlimit="10" x1="26.195" y1="14.774" x2="26.195" y2="20.443"/>
</g>
<g>
	<path fill-rule="evenodd" clip-rule="evenodd" fill="#FFFFFF" d="M15.582,10.183c0-1.201-0.961-2.041-2.041-2.041
		c-1.199,0-2.039,0.84-2.039,2.041c0,1.08,0.84,2.039,2.039,2.039C14.621,12.222,15.582,11.263,15.582,10.183"/>
	
		<path fill="none" stroke="#000000" stroke-width="0.2835" stroke-linecap="round" stroke-linejoin="round" stroke-miterlimit="10" d="
		M15.581,10.17c0-1.201-0.961-2.041-2.041-2.041c-1.199,0-2.039,0.84-2.039,2.041c0,1.08,0.84,2.039,2.039,2.039
		C14.62,12.209,15.581,11.25,15.581,10.17z"/>
	
		<line fill="none" stroke="#000000" stroke-width="0.2842" stroke-linejoin="round" stroke-miterlimit="10" x1="13.542" y1="7.334" x2="13.542" y2="13.004"/>
</g>
<g>
	<path fill-rule="evenodd" clip-rule="evenodd" fill="#FFFFFF" d="M23.743,10.183c0-1.201-0.961-2.041-2.041-2.041
		c-1.199,0-2.039,0.84-2.039,2.041c0,1.08,0.84,2.039,2.039,2.039C22.782,12.222,23.743,11.263,23.743,10.183"/>
	
		<path fill="none" stroke="#000000" stroke-width="0.2835" stroke-linecap="round" stroke-linejoin="round" stroke-miterlimit="10" d="
		M23.742,10.17c0-1.201-0.961-2.041-2.041-2.041c-1.199,0-2.039,0.84-2.039,2.041c0,1.08,0.84,2.039,2.039,2.039
		C22.781,12.209,23.742,11.25,23.742,10.17z"/>
	
		<line fill="none" stroke="#000000" stroke-width="0.2842" stroke-linejoin="round" stroke-miterlimit="10" x1="21.703" y1="7.334" x2="21.703" y2="13.004"/>
</g>
<g>
	<path fill-rule="evenodd" clip-rule="evenodd" fill="#FFFFFF" d="M16.181,2.85c0-1.201-0.961-2.041-2.041-2.041
		c-1.199,0-2.039,0.84-2.039,2.041c0,1.08,0.84,2.039,2.039,2.039C15.22,4.889,16.181,3.93,16.181,2.85"/>
	
		<path fill="none" stroke="#000000" stroke-width="0.2835" stroke-linecap="round" stroke-linejoin="round" stroke-miterlimit="10" d="
		M16.18,2.837c0-1.201-0.961-2.041-2.041-2.041c-1.199,0-2.039,0.84-2.039,2.041c0,1.08,0.84,2.039,2.039,2.039
		C15.219,4.876,16.18,3.917,16.18,2.837z"/>
	
		<line fill="none" stroke="#000000" stroke-width="0.2842" stroke-linejoin="round" stroke-miterlimit="10" x1="14.141" y1="0.001" x2="14.141" y2="5.671"/>
</g>
<path fill="none" stroke="#000000" stroke-width="0.12" stroke-linecap="round" stroke-linejoin="round" stroke-miterlimit="10" d="
	M26.021,2.85c0-1.201-0.96-2.041-2.039-2.041c-1.201,0-2.041,0.84-2.041,2.041c0,1.08,0.84,2.039,2.041,2.039
	C25.061,4.889,26.021,3.93,26.021,2.85z"/>
<g>
	<path fill-rule="evenodd" clip-rule="evenodd" fill="#FFFFFF" d="M26.021,2.85c0-1.201-0.961-2.041-2.041-2.041
		c-1.199,0-2.039,0.84-2.039,2.041c0,1.08,0.84,2.039,2.039,2.039C25.06,4.889,26.021,3.93,26.021,2.85"/>
	
		<path fill="none" stroke="#000000" stroke-width="0.2835" stroke-linecap="round" stroke-linejoin="round" stroke-miterlimit="10" d="
		M26.02,2.837c0-1.201-0.961-2.041-2.041-2.041c-1.199,0-2.039,0.84-2.039,2.041c0,1.08,0.84,2.039,2.039,2.039
		C25.059,4.876,26.02,3.917,26.02,2.837z"/>
	
		<line fill="none" stroke="#000000" stroke-width="0.2842" stroke-linejoin="round" stroke-miterlimit="10" x1="23.98" y1="0.001" x2="23.98" y2="5.671"/>
</g>
<g>
	<path fill-rule="evenodd" clip-rule="evenodd" fill="#FFFFFF" d="M4.542,24.344c0-1.201-0.961-2.041-2.041-2.041
		c-1.199,0-2.039,0.84-2.039,2.041c0,1.08,0.84,2.039,2.039,2.039C3.581,26.383,4.542,25.424,4.542,24.344"/>
	
		<path fill="none" stroke="#000000" stroke-width="0.2835" stroke-linecap="round" stroke-linejoin="round" stroke-miterlimit="10" d="
		M4.541,24.33c0-1.201-0.961-2.041-2.041-2.041c-1.199,0-2.039,0.84-2.039,2.041c0,1.08,0.84,2.039,2.039,2.039
		C3.58,26.369,4.541,25.41,4.541,24.33z"/>
	
		<line fill="none" stroke="#000000" stroke-width="0.2842" stroke-linejoin="round" stroke-miterlimit="10" x1="2.502" y1="21.494" x2="2.502" y2="27.164"/>
</g>
<g>
	<path fill-rule="evenodd" clip-rule="evenodd" fill="#FFFFFF" d="M14.741,24.344c0-1.201-0.961-2.041-2.041-2.041
		c-1.199,0-2.039,0.84-2.039,2.041c0,1.08,0.84,2.039,2.039,2.039C13.78,26.383,14.741,25.424,14.741,24.344"/>
	
		<path fill="none" stroke="#000000" stroke-width="0.2835" stroke-linecap="round" stroke-linejoin="round" stroke-miterlimit="10" d="
		M14.74,24.33c0-1.201-0.961-2.041-2.041-2.041c-1.199,0-2.039,0.84-2.039,2.041c0,1.08,0.84,2.039,2.039,2.039
		C13.779,26.369,14.74,25.41,14.74,24.33z"/>
	
		<line fill="none" stroke="#000000" stroke-width="0.2842" stroke-linejoin="round" stroke-miterlimit="10" x1="12.701" y1="21.494" x2="12.701" y2="27.164"/>
</g>
<g>
	<path fill-rule="evenodd" clip-rule="evenodd" fill="#FFFFFF" d="M24.581,24.344c0-1.201-0.961-2.041-2.041-2.041
		c-1.199,0-2.039,0.84-2.039,2.041c0,1.08,0.84,2.039,2.039,2.039C23.62,26.383,24.581,25.424,24.581,24.344"/>
	
		<path fill="none" stroke="#000000" stroke-width="0.2835" stroke-linecap="round" stroke-linejoin="round" stroke-miterlimit="10" d="
		M24.58,24.33c0-1.201-0.961-2.041-2.041-2.041c-1.199,0-2.039,0.84-2.039,2.041c0,1.08,0.84,2.039,2.039,2.039
		C23.619,26.369,24.58,25.41,24.58,24.33z"/>
	
		<line fill="none" stroke="#000000" stroke-width="0.2842" stroke-linejoin="round" stroke-miterlimit="10" x1="22.541" y1="21.494" x2="22.541" y2="27.164"/>
</g>
</svg>
