<?xml version="1.0" encoding="utf-8"?>
<!-- Generator: Adobe Illustrator 16.0.0, SVG Export Plug-In . SVG Version: 6.00 Build 0)  -->
<!DOCTYPE svg PUBLIC "-//W3C//DTD SVG 1.1//EN" "http://www.w3.org/Graphics/SVG/1.1/DTD/svg11.dtd">
<svg version="1.1" id="Ebene_1" xmlns="http://www.w3.org/2000/svg" xmlns:xlink="http://www.w3.org/1999/xlink" x="0px" y="0px"
	 width="28.35px" height="28.35px" viewBox="0 0 28.35 28.35" enable-background="new 0 0 28.35 28.35" xml:space="preserve">
<g>
	<path fill="#1D1D1B" d="M14.875,3.384c0,0.52,0.405,0.928,0.92,0.928c0.506,0,0.922-0.408,0.922-0.928
		c0-0.508-0.416-0.916-0.922-0.916C15.279,2.468,14.875,2.876,14.875,3.384"/>
	<path fill="#000100" d="M17.777,3.391c0,0.174,0.123,0.297,0.297,0.297c0.15,0,0.299-0.123,0.299-0.297
		c0-0.15-0.148-0.299-0.299-0.299C17.9,3.092,17.777,3.241,17.777,3.391"/>
	<path fill="#000100" d="M19.314,3.391c0,0.082,0.059,0.141,0.141,0.141c0.072,0,0.143-0.059,0.143-0.141
		c0-0.072-0.07-0.143-0.143-0.143C19.373,3.249,19.314,3.319,19.314,3.391"/>
	<path fill="#1D1D1B" d="M14.875,17.512c0,0.52,0.405,0.928,0.92,0.928c0.506,0,0.922-0.408,0.922-0.928
		c0-0.508-0.416-0.916-0.922-0.916C15.279,16.596,14.875,17.004,14.875,17.512"/>
	<path fill="#000100" d="M17.777,17.52c0,0.174,0.123,0.297,0.297,0.297c0.15,0,0.299-0.123,0.299-0.297
		c0-0.15-0.148-0.299-0.299-0.299C17.9,17.221,17.777,17.369,17.777,17.52"/>
	<path fill="#000100" d="M19.314,17.52c0,0.082,0.059,0.141,0.141,0.141c0.072,0,0.143-0.059,0.143-0.141
		c0-0.072-0.07-0.143-0.143-0.143C19.373,17.377,19.314,17.447,19.314,17.52"/>
	<path fill="#1D1D1B" d="M7.794,10.476c0,0.52,0.405,0.928,0.921,0.928c0.505,0,0.921-0.408,0.921-0.928
		c0-0.508-0.416-0.916-0.921-0.916C8.2,9.56,7.794,9.968,7.794,10.476"/>
	<path fill="#000100" d="M10.697,10.483c0,0.174,0.124,0.297,0.298,0.297c0.149,0,0.298-0.123,0.298-0.297
		c0-0.15-0.148-0.299-0.298-0.299C10.821,10.184,10.697,10.333,10.697,10.483"/>
	<path fill="#000100" d="M12.234,10.483c0,0.082,0.059,0.141,0.142,0.141c0.071,0,0.142-0.059,0.142-0.141
		c0-0.072-0.07-0.143-0.142-0.143C12.292,10.34,12.234,10.411,12.234,10.483"/>
	<path fill="#1D1D1B" d="M7.794,24.604c0,0.52,0.405,0.928,0.921,0.928c0.505,0,0.921-0.408,0.921-0.928
		c0-0.508-0.416-0.916-0.921-0.916C8.2,23.688,7.794,24.096,7.794,24.604"/>
	<path fill="#000100" d="M10.697,24.611c0,0.174,0.124,0.297,0.298,0.297c0.149,0,0.298-0.123,0.298-0.297
		c0-0.15-0.148-0.299-0.298-0.299C10.821,24.312,10.697,24.461,10.697,24.611"/>
	<path fill="#000100" d="M12.234,24.611c0,0.082,0.059,0.141,0.142,0.141c0.071,0,0.142-0.059,0.142-0.141
		c0-0.072-0.07-0.143-0.142-0.143C12.292,24.469,12.234,24.539,12.234,24.611"/>
	<g>
		<line fill="none" stroke="#000100" stroke-width="0.2835" stroke-miterlimit="10" x1="0.916" y1="4.843" x2="6.196" y2="4.843"/>
		<g>
			<g>
				
					<line fill="none" stroke="#000100" stroke-width="0.2835" stroke-linecap="square" stroke-miterlimit="10" x1="3.556" y1="1.934" x2="3.556" y2="2.894"/>
			</g>
			<g>
				
					<line fill="none" stroke="#000100" stroke-width="0.2835" stroke-linecap="square" stroke-miterlimit="10" x1="3.556" y1="3.615" x2="3.556" y2="4.814"/>
			</g>
		</g>
	</g>
	<g>
		
			<line fill="none" stroke="#000100" stroke-width="0.2835" stroke-miterlimit="10" x1="0.916" y1="18.973" x2="6.196" y2="18.973"/>
		<g>
			<g>
				
					<line fill="none" stroke="#000100" stroke-width="0.2835" stroke-linecap="square" stroke-miterlimit="10" x1="3.556" y1="16.064" x2="3.556" y2="17.023"/>
			</g>
			<g>
				
					<line fill="none" stroke="#000100" stroke-width="0.2835" stroke-linecap="square" stroke-miterlimit="10" x1="3.556" y1="17.744" x2="3.556" y2="18.943"/>
			</g>
		</g>
	</g>
	<g>
		
			<line fill="none" stroke="#000100" stroke-width="0.2835" stroke-miterlimit="10" x1="22.154" y1="11.855" x2="27.434" y2="11.855"/>
		<g>
			<g>
				
					<line fill="none" stroke="#000100" stroke-width="0.2835" stroke-linecap="square" stroke-miterlimit="10" x1="24.795" y1="8.946" x2="24.795" y2="9.906"/>
			</g>
			<g>
				
					<line fill="none" stroke="#000100" stroke-width="0.2835" stroke-linecap="square" stroke-miterlimit="10" x1="24.795" y1="10.626" x2="24.795" y2="11.826"/>
			</g>
		</g>
	</g>
	<g>
		
			<line fill="none" stroke="#000100" stroke-width="0.2835" stroke-miterlimit="10" x1="22.154" y1="26.082" x2="27.434" y2="26.082"/>
		<g>
			<g>
				
					<line fill="none" stroke="#000100" stroke-width="0.2835" stroke-linecap="square" stroke-miterlimit="10" x1="24.795" y1="23.174" x2="24.795" y2="24.133"/>
			</g>
			<g>
				
					<line fill="none" stroke="#000100" stroke-width="0.2835" stroke-linecap="square" stroke-miterlimit="10" x1="24.795" y1="24.854" x2="24.795" y2="26.053"/>
			</g>
		</g>
	</g>
</g>
</svg>
