<?xml version="1.0" encoding="utf-8"?>
<!-- Generator: Adobe Illustrator 16.0.0, SVG Export Plug-In . SVG Version: 6.00 Build 0)  -->
<!DOCTYPE svg PUBLIC "-//W3C//DTD SVG 1.1//EN" "http://www.w3.org/Graphics/SVG/1.1/DTD/svg11.dtd">
<svg version="1.1" id="Ebene_1" xmlns="http://www.w3.org/2000/svg" xmlns:xlink="http://www.w3.org/1999/xlink" x="0px" y="0px"
	 width="28.35px" height="28.35px" viewBox="0 0 28.35 28.35" enable-background="new 0 0 28.35 28.35" xml:space="preserve">
<g>
	<polygon fill="#000100" points="15.264,1.369 17.718,5.744 20.17,1.369 	"/>
	<polygon fill="#000100" points="1.104,15.439 3.558,19.814 6.01,15.439 	"/>
	<polygon fill="#000100" points="22.34,22.609 24.794,26.984 27.246,22.609 	"/>
	<path fill="#1D1D1B" d="M2.553,3.445c0,0.52,0.405,0.926,0.922,0.926c0.506,0,0.92-0.406,0.92-0.926
		c0-0.508-0.414-0.916-0.92-0.916C2.958,2.529,2.553,2.937,2.553,3.445"/>
	<path fill="#1D1D1B" d="M16.714,17.605c0,0.52,0.405,0.926,0.922,0.926c0.506,0,0.92-0.406,0.92-0.926
		c0-0.508-0.414-0.916-0.92-0.916C17.119,16.689,16.714,17.098,16.714,17.605"/>
	<path fill="#1D1D1B" d="M22.971,10.519c0,0.982,0.769,1.754,1.743,1.754c0.957,0,1.743-0.771,1.743-1.754
		c0-0.959-0.786-1.732-1.743-1.732C23.739,8.787,22.971,9.56,22.971,10.519"/>
	<path fill="#1D1D1B" d="M8.811,24.617c0,0.982,0.769,1.756,1.743,1.756c0.957,0,1.743-0.773,1.743-1.756
		c0-0.959-0.786-1.73-1.743-1.73C9.579,22.887,8.811,23.658,8.811,24.617"/>
	<path fill="#000100" d="M10.257,10.531c0,0.174,0.124,0.297,0.298,0.297c0.148,0,0.297-0.123,0.297-0.297
		c0-0.15-0.148-0.299-0.297-0.299C10.381,10.232,10.257,10.38,10.257,10.531"/>
</g>
</svg>
