<?xml version="1.0" encoding="utf-8"?>
<!-- Generator: Adobe Illustrator 16.0.0, SVG Export Plug-In . SVG Version: 6.00 Build 0)  -->
<!DOCTYPE svg PUBLIC "-//W3C//DTD SVG 1.1//EN" "http://www.w3.org/Graphics/SVG/1.1/DTD/svg11.dtd">
<svg version="1.1" id="Ebene_1" xmlns="http://www.w3.org/2000/svg" xmlns:xlink="http://www.w3.org/1999/xlink" x="0px" y="0px"
	 width="28.35px" height="28.35px" viewBox="0 0 28.35 28.35" enable-background="new 0 0 28.35 28.35" xml:space="preserve">
<g>
	<line fill="none" stroke="#000100" stroke-width="0.2835" stroke-miterlimit="10" x1="1.465" y1="3.111" x2="6.986" y2="3.111"/>
	<line fill="none" stroke="#000100" stroke-width="0.2835" stroke-miterlimit="10" x1="11.295" y1="5.271" x2="17.054" y2="5.271"/>
	
		<line fill="none" stroke="#000100" stroke-width="0.2835" stroke-miterlimit="10" x1="14.175" y1="19.661" x2="19.926" y2="19.661"/>
	<line fill="none" stroke="#000100" stroke-width="0.2835" stroke-miterlimit="10" x1="3.385" y1="24.451" x2="9.145" y2="24.451"/>
	
		<line fill="none" stroke="#000100" stroke-width="0.2835" stroke-miterlimit="10" x1="21.365" y1="17.741" x2="26.885" y2="17.741"/>
	
		<line fill="none" stroke="#000100" stroke-width="0.2835" stroke-miterlimit="10" x1="10.816" y1="13.182" x2="16.336" y2="13.182"/>
	
		<line fill="none" stroke="#000100" stroke-width="0.2835" stroke-miterlimit="10" x1="18.494" y1="11.031" x2="24.006" y2="11.031"/>
	<line fill="none" stroke="#000100" stroke-width="0.2835" stroke-miterlimit="10" x1="1.465" y1="17.741" x2="6.986" y2="17.741"/>
	
		<line fill="none" stroke="#000100" stroke-width="0.2835" stroke-miterlimit="10" x1="19.926" y1="24.932" x2="25.446" y2="24.932"/>
	
		<line fill="none" stroke="#000100" stroke-width="0.2835" stroke-miterlimit="10" x1="9.865" y1="27.091" x2="15.615" y2="27.091"/>
	<line fill="none" stroke="#000100" stroke-width="0.2835" stroke-miterlimit="10" x1="3.385" y1="11.031" x2="9.145" y2="11.031"/>
	<line fill="none" stroke="#000100" stroke-width="0.2835" stroke-miterlimit="10" x1="21.365" y1="3.111" x2="26.885" y2="3.111"/>
</g>
</svg>
