<?xml version="1.0" encoding="utf-8"?>
<!-- Generator: Adobe Illustrator 16.0.0, SVG Export Plug-In . SVG Version: 6.00 Build 0)  -->
<!DOCTYPE svg PUBLIC "-//W3C//DTD SVG 1.1//EN" "http://www.w3.org/Graphics/SVG/1.1/DTD/svg11.dtd">
<svg version="1.1" id="Ebene_1" xmlns="http://www.w3.org/2000/svg" xmlns:xlink="http://www.w3.org/1999/xlink" x="0px" y="0px"
	 width="28.35px" height="28.35px" viewBox="0 0 28.35 28.35" enable-background="new 0 0 28.35 28.35" xml:space="preserve">
<g>
	
		<line fill="none" stroke="#000000" stroke-width="0.2835" stroke-linejoin="round" stroke-miterlimit="10" x1="15.628" y1="18.629" x2="21.268" y2="18.629"/>
	<polygon fill="none" stroke="#000000" stroke-width="0.2835" stroke-linecap="round" stroke-miterlimit="10" points="5.668,17.76 
		4.228,20.549 2.787,17.76 4.228,14.91 	"/>
	<polygon fill="none" stroke="#000000" stroke-width="0.2835" stroke-linecap="round" stroke-miterlimit="10" points="12.748,24.84 
		11.308,27.629 9.867,24.84 11.308,21.99 	"/>
	<polygon fill="none" stroke="#000000" stroke-width="0.2835" stroke-linecap="round" stroke-miterlimit="10" points="12.748,10.62 
		11.308,13.41 9.867,10.62 11.308,7.77 	"/>
	<polygon fill="none" stroke="#000000" stroke-width="0.2835" stroke-linecap="round" stroke-miterlimit="10" points="26.908,24.84 
		25.468,27.629 24.027,24.84 25.468,21.99 	"/>
	<polygon fill="none" stroke="#000000" stroke-width="0.2835" stroke-linecap="round" stroke-miterlimit="10" points="26.908,10.62 
		25.468,13.41 24.027,10.62 25.468,7.77 	"/>
	<polygon fill="none" stroke="#000000" stroke-width="0.2835" stroke-linecap="round" stroke-miterlimit="10" points="19.858,3.57 
		18.418,6.36 16.978,3.57 18.418,0.72 	"/>
	<g>
		<path fill="#1D1D1B" d="M4.676,3.454c0,0.559,0.438,0.998,0.992,0.998c0.545,0,0.992-0.439,0.992-0.998
			c0-0.547-0.447-0.986-0.992-0.986C5.113,2.467,4.676,2.907,4.676,3.454"/>
		<path fill="#1D1D1B" d="M1.797,3.454c0,0.559,0.437,0.998,0.992,0.998c0.543,0,0.991-0.439,0.991-0.998
			c0-0.547-0.448-0.986-0.991-0.986C2.233,2.467,1.797,2.907,1.797,3.454"/>
		<g>
			<line fill="none" stroke="#000100" stroke-width="0.2835" stroke-miterlimit="10" x1="1.348" y1="4.549" x2="7.107" y2="4.549"/>
		</g>
	</g>
</g>
</svg>
