<?xml version="1.0" encoding="utf-8"?>
<!-- Generator: Adobe Illustrator 16.0.0, SVG Export Plug-In . SVG Version: 6.00 Build 0)  -->
<!DOCTYPE svg PUBLIC "-//W3C//DTD SVG 1.1//EN" "http://www.w3.org/Graphics/SVG/1.1/DTD/svg11.dtd">
<svg version="1.1" id="Ebene_1" xmlns="http://www.w3.org/2000/svg" xmlns:xlink="http://www.w3.org/1999/xlink" x="0px" y="0px"
	 width="28.35px" height="28.35px" viewBox="0 0 28.35 28.35" enable-background="new 0 0 28.35 28.35" xml:space="preserve">
<g>
	
		<line fill="none" stroke="#000000" stroke-width="0.2835" stroke-linejoin="round" stroke-miterlimit="10" x1="0.748" y1="17.553" x2="6.388" y2="17.553"/>
	
		<line fill="none" stroke="#000000" stroke-width="0.2835" stroke-linejoin="round" stroke-miterlimit="10" x1="0.748" y1="3.414" x2="6.388" y2="3.414"/>
	<g>
		<path fill="#1D1D1B" d="M25.17,24.377c0,0.559,0.438,0.998,0.992,0.998c0.545,0,0.992-0.439,0.992-0.998
			c0-0.547-0.447-0.986-0.992-0.986C25.607,23.391,25.17,23.83,25.17,24.377"/>
		<path fill="#1D1D1B" d="M22.291,24.377c0,0.559,0.438,0.998,0.992,0.998c0.543,0,0.992-0.439,0.992-0.998
			c0-0.547-0.449-0.986-0.992-0.986C22.729,23.391,22.291,23.83,22.291,24.377"/>
		<g>
			
				<line fill="none" stroke="#000100" stroke-width="0.2835" stroke-miterlimit="10" x1="21.842" y1="25.473" x2="27.602" y2="25.473"/>
		</g>
	</g>
	<g>
		<path fill="#1D1D1B" d="M18.311,17.293c0,0.559,0.438,0.998,0.992,0.998c0.545,0,0.992-0.439,0.992-0.998
			c0-0.547-0.447-0.986-0.992-0.986C18.748,16.307,18.311,16.746,18.311,17.293"/>
		<path fill="#1D1D1B" d="M15.432,17.293c0,0.559,0.436,0.998,0.992,0.998c0.543,0,0.99-0.439,0.99-0.998
			c0-0.547-0.447-0.986-0.99-0.986C15.867,16.307,15.432,16.746,15.432,17.293"/>
		<g>
			
				<line fill="none" stroke="#000100" stroke-width="0.2835" stroke-miterlimit="10" x1="14.982" y1="18.389" x2="20.742" y2="18.389"/>
		</g>
	</g>
	<polygon fill="#000100" points="17.662,0.38 19.227,3.498 17.662,6.617 16.107,3.498 	"/>
	<polygon fill="#000100" points="24.742,7.459 26.307,10.577 24.742,13.696 23.188,10.577 	"/>
	<polygon fill="#000100" points="10.583,7.459 12.147,10.577 10.583,13.696 9.028,10.577 	"/>
	<polygon fill="#000100" points="10.583,21.621 12.147,24.738 10.583,27.857 9.028,24.738 	"/>
</g>
</svg>
