<?xml version="1.0" encoding="utf-8"?>
<!-- Generator: Adobe Illustrator 16.0.0, SVG Export Plug-In . SVG Version: 6.00 Build 0)  -->
<!DOCTYPE svg PUBLIC "-//W3C//DTD SVG 1.1//EN" "http://www.w3.org/Graphics/SVG/1.1/DTD/svg11.dtd">
<svg version="1.1" id="Ebene_1" xmlns="http://www.w3.org/2000/svg" xmlns:xlink="http://www.w3.org/1999/xlink" x="0px" y="0px"
	 width="28.35px" height="28.35px" viewBox="0 0 28.35 28.35" enable-background="new 0 0 28.35 28.35" xml:space="preserve">
<g>
	<g>
		<path fill="#1D1D1B" d="M25.242,10.211c0,0.559,0.438,0.998,0.992,0.998c0.545,0,0.992-0.439,0.992-0.998
			c0-0.547-0.447-0.986-0.992-0.986C25.68,9.225,25.242,9.665,25.242,10.211"/>
		<path fill="#1D1D1B" d="M22.363,10.211c0,0.559,0.438,0.998,0.992,0.998c0.543,0,0.992-0.439,0.992-0.998
			c0-0.547-0.449-0.986-0.992-0.986C22.801,9.225,22.363,9.665,22.363,10.211"/>
		<g>
			
				<line fill="none" stroke="#000100" stroke-width="0.2835" stroke-miterlimit="10" x1="21.914" y1="11.307" x2="27.674" y2="11.307"/>
		</g>
	</g>
	<g>
		<path fill="#1D1D1B" d="M25.242,24.371c0,0.559,0.438,0.998,0.992,0.998c0.545,0,0.992-0.439,0.992-0.998
			c0-0.547-0.447-0.986-0.992-0.986C25.68,23.385,25.242,23.824,25.242,24.371"/>
		<path fill="#1D1D1B" d="M22.363,24.371c0,0.559,0.438,0.998,0.992,0.998c0.543,0,0.992-0.439,0.992-0.998
			c0-0.547-0.449-0.986-0.992-0.986C22.801,23.385,22.363,23.824,22.363,24.371"/>
		<g>
			
				<line fill="none" stroke="#000100" stroke-width="0.2835" stroke-miterlimit="10" x1="21.914" y1="25.467" x2="27.674" y2="25.467"/>
		</g>
	</g>
	<g>
		<path fill="#1D1D1B" d="M4.003,17.348c0,0.559,0.438,0.998,0.992,0.998c0.545,0,0.992-0.439,0.992-0.998
			c0-0.547-0.447-0.986-0.992-0.986C4.441,16.361,4.003,16.801,4.003,17.348"/>
		<path fill="#1D1D1B" d="M1.125,17.348c0,0.559,0.437,0.998,0.992,0.998c0.543,0,0.991-0.439,0.991-0.998
			c0-0.547-0.448-0.986-0.991-0.986C1.561,16.361,1.125,16.801,1.125,17.348"/>
		<g>
			
				<line fill="none" stroke="#000100" stroke-width="0.2835" stroke-miterlimit="10" x1="0.675" y1="18.443" x2="6.435" y2="18.443"/>
		</g>
	</g>
	<g>
		<path fill="#1D1D1B" d="M4.003,3.098c0,0.559,0.438,0.998,0.992,0.998c0.545,0,0.992-0.439,0.992-0.998
			c0-0.547-0.447-0.986-0.992-0.986C4.441,2.112,4.003,2.551,4.003,3.098"/>
		<path fill="#1D1D1B" d="M1.125,3.098c0,0.559,0.437,0.998,0.992,0.998c0.543,0,0.991-0.439,0.991-0.998
			c0-0.547-0.448-0.986-0.991-0.986C1.561,2.112,1.125,2.551,1.125,3.098"/>
		<g>
			<line fill="none" stroke="#000100" stroke-width="0.2835" stroke-miterlimit="10" x1="0.675" y1="4.194" x2="6.435" y2="4.194"/>
		</g>
	</g>
	<g>
		<path fill="#1D1D1B" d="M18.051,17.348c0,0.559,0.438,0.998,0.992,0.998c0.545,0,0.992-0.439,0.992-0.998
			c0-0.547-0.447-0.986-0.992-0.986C18.488,16.361,18.051,16.801,18.051,17.348"/>
		<path fill="#1D1D1B" d="M15.172,17.348c0,0.559,0.438,0.998,0.992,0.998c0.543,0,0.992-0.439,0.992-0.998
			c0-0.547-0.449-0.986-0.992-0.986C15.609,16.361,15.172,16.801,15.172,17.348"/>
		<g>
			
				<line fill="none" stroke="#000100" stroke-width="0.2835" stroke-miterlimit="10" x1="14.723" y1="18.443" x2="20.482" y2="18.443"/>
		</g>
	</g>
	<g>
		<path fill="#1D1D1B" d="M18.051,3.098c0,0.559,0.438,0.998,0.992,0.998c0.545,0,0.992-0.439,0.992-0.998
			c0-0.547-0.447-0.986-0.992-0.986C18.488,2.112,18.051,2.551,18.051,3.098"/>
		<path fill="#1D1D1B" d="M15.172,3.098c0,0.559,0.438,0.998,0.992,0.998c0.543,0,0.992-0.439,0.992-0.998
			c0-0.547-0.449-0.986-0.992-0.986C15.609,2.112,15.172,2.551,15.172,3.098"/>
		<g>
			
				<line fill="none" stroke="#000100" stroke-width="0.2835" stroke-miterlimit="10" x1="14.723" y1="4.194" x2="20.482" y2="4.194"/>
		</g>
	</g>
	<g>
		<path fill="#1D1D1B" d="M10.912,24.424c0,0.559,0.438,0.998,0.992,0.998c0.545,0,0.992-0.439,0.992-0.998
			c0-0.547-0.447-0.986-0.992-0.986C11.349,23.438,10.912,23.877,10.912,24.424"/>
		<path fill="#1D1D1B" d="M8.033,24.424c0,0.559,0.437,0.998,0.992,0.998c0.543,0,0.991-0.439,0.991-0.998
			c0-0.547-0.448-0.986-0.991-0.986C8.469,23.438,8.033,23.877,8.033,24.424"/>
		<g>
			
				<line fill="none" stroke="#000100" stroke-width="0.2835" stroke-miterlimit="10" x1="7.583" y1="25.52" x2="13.343" y2="25.52"/>
		</g>
	</g>
	<g>
		<path fill="#1D1D1B" d="M10.912,10.174c0,0.559,0.438,0.998,0.992,0.998c0.545,0,0.992-0.439,0.992-0.998
			c0-0.547-0.447-0.986-0.992-0.986C11.349,9.188,10.912,9.627,10.912,10.174"/>
		<path fill="#1D1D1B" d="M8.033,10.174c0,0.559,0.437,0.998,0.992,0.998c0.543,0,0.991-0.439,0.991-0.998
			c0-0.547-0.448-0.986-0.991-0.986C8.469,9.188,8.033,9.627,8.033,10.174"/>
		<g>
			
				<line fill="none" stroke="#000100" stroke-width="0.2835" stroke-miterlimit="10" x1="7.583" y1="11.27" x2="13.343" y2="11.27"/>
		</g>
	</g>
</g>
</svg>
