<?xml version="1.0" encoding="utf-8"?>
<!-- Generator: Adobe Illustrator 16.0.0, SVG Export Plug-In . SVG Version: 6.00 Build 0)  -->
<!DOCTYPE svg PUBLIC "-//W3C//DTD SVG 1.1//EN" "http://www.w3.org/Graphics/SVG/1.1/DTD/svg11.dtd">
<svg version="1.1" id="Ebene_1" xmlns="http://www.w3.org/2000/svg" xmlns:xlink="http://www.w3.org/1999/xlink" x="0px" y="0px"
	 width="28.35px" height="28.35px" viewBox="0 0 28.35 28.35" enable-background="new 0 0 28.35 28.35" xml:space="preserve">
<g>
	<polyline fill="none" stroke="#000000" stroke-width="0.2835" stroke-linecap="round" stroke-miterlimit="10" points="3.555,3.694 
		6.435,2.253 4.995,0.814 3.555,0.814 2.115,2.253 3.555,3.694 	"/>
	<polyline fill="none" stroke="#000000" stroke-width="0.2835" stroke-linecap="round" stroke-miterlimit="10" points="
		13.515,5.614 16.275,4.294 14.956,2.854 13.515,2.854 12.075,4.294 13.515,5.614 	"/>
	<polyline fill="none" stroke="#000000" stroke-width="0.2835" stroke-linecap="round" stroke-miterlimit="10" points="
		16.275,20.135 19.154,18.693 17.715,17.254 16.275,17.254 14.956,18.693 16.275,20.135 	"/>
	<polyline fill="none" stroke="#000000" stroke-width="0.2835" stroke-linecap="round" stroke-miterlimit="10" points="
		5.595,24.934 8.355,23.494 6.915,22.055 5.595,22.055 4.155,23.494 5.595,24.934 	"/>
	<polyline fill="none" stroke="#000000" stroke-width="0.2835" stroke-linecap="round" stroke-miterlimit="10" points="
		23.355,18.094 26.234,16.773 24.795,15.334 23.355,15.334 22.035,16.773 23.355,18.094 	"/>
	<polyline fill="none" stroke="#000000" stroke-width="0.2835" stroke-linecap="round" stroke-miterlimit="10" points="
		12.915,13.654 15.795,12.214 14.355,10.774 12.915,10.774 11.475,12.214 12.915,13.654 	"/>
	<polyline fill="none" stroke="#000000" stroke-width="0.2835" stroke-linecap="round" stroke-miterlimit="10" points="
		20.594,11.614 23.355,10.173 22.035,8.734 20.594,8.734 19.154,10.173 20.594,11.614 	"/>
	<polyline fill="none" stroke="#000000" stroke-width="0.2835" stroke-linecap="round" stroke-miterlimit="10" points="
		3.555,18.094 6.435,16.773 4.995,15.334 3.555,15.334 2.115,16.773 3.555,18.094 	"/>
	<polyline fill="none" stroke="#000000" stroke-width="0.2835" stroke-linecap="round" stroke-miterlimit="10" points="
		22.035,25.535 24.795,24.094 23.355,22.654 22.035,22.654 20.594,24.094 22.035,25.535 	"/>
	<polyline fill="none" stroke="#000000" stroke-width="0.2835" stroke-linecap="round" stroke-miterlimit="10" points="
		12.075,27.455 14.956,26.135 13.515,24.693 12.075,24.693 10.635,26.135 12.075,27.455 	"/>
	<polyline fill="none" stroke="#000000" stroke-width="0.2835" stroke-linecap="round" stroke-miterlimit="10" points="
		5.595,11.614 8.355,10.173 6.915,8.734 5.595,8.734 4.155,10.173 5.595,11.614 	"/>
	<polyline fill="none" stroke="#000000" stroke-width="0.2835" stroke-linecap="round" stroke-miterlimit="10" points="
		23.355,3.694 26.234,2.253 24.795,0.814 23.355,0.814 22.035,2.253 23.355,3.694 	"/>
</g>
</svg>
